3
20
1
1
1
0
0
0

0000000001111111111111111000000000000
0000000010000000000000001100000000000
0000001100000000000000000110000000000
0000001000000000000000000001100000000
0000100000000000000000000000100000000
0001100000000000000000000000100000000
0010000000000000000000000000100000000
0100000000000000000000000001100000000
0100000000000000000000000001000000000
0000000000000000000000000010000000000
0000000000000000000000000100000000000
0000000000000000000000001000000000000
0000000000000000000000010000000000000
0000000000000000000000110000000000000
0000000000000000000001100000000000000
0000000000000000111111110000000000000
0000000000000000000000001111000000000
0000000000000000000000000000111110000
0000000000000000000000000000000011000
0000000000000000000000000000000001100
0000000000000000000000000000000000100
0000000000000000000000000000000000100
0000000000000000000000000000000000100
0000000000000000000000000000000000100
0000000000000000000000000000000000100
0000000000000000000000000000000001000
0000000000000000000000000000000011000
0000000000000000000000000000000110000
0000000000000000000000000000001100000
0000000000000000000000000000011000000
0000000000000000000000000000100000000
0000000000000000000000000001000000000
0000000000000000000000000110000000000
0000000000000000000000011100000000000
0000000000000000000001100000000000000
0000100000000000001111000000000000000
0000011111111111111000000000000000000

0000000000000001111111111000000000000
0000000000001010000000000110000000000
0000000000010000000000000011000000000
0000000001100000000000000001000000000
0000000000000000000000000001100000000
0000000000000000000000000000100000000
0000000000000000000000000000100000000
0000000000000000000000000000100000000
0000000000000000000000000000100000000
0000000000000000000000000000100000000
0000000000000000000000000001000000000
0000000000000000000000000001000000000
0000000000000000000000000011000000000
0000000000000000000000000010000000000
0000000000000000000000000100000000000
0000000000000000000000001100000000000
0000000000000000000000011000000000000
0000000000000000000000110000000000000
0000000000000000000011000000000000000
0000000000000001111111110000000000000
0000000000111111000000001111000000000
0000000000000000000000000001100000000
0000000000000000000000000000100000000
0000000000000000000000000000100000000
0000000000000000000000000000100000000
0000000000000000000000000000100000000
0000000000000000000000000000100000000
0000000000000000000000000001000000000
0000000000000000000000000001000000000
0000000000000000000000000011000000000
0000000000000000000000000010000000000
0000000000000000000000000100000000000
0000000000000000000000001000000000000
0000000000000000000000011000000000000
0000000000000000000000110000000000000
0000000000000000000001100000000000000
0000000111111111111110000000000000000

0000000000111111111111100000000000000
0000000001000000000000011100000000000
0000000000000000000000000110000000000
0000000000000000000000000011000000000
0000000000000000000000000001000000000
0000000000000000000000000000100000000
0000000000000000000000000000100000000
0000000000000000000000000000000000000
0000000000000000000000000000100000000
0000000000000000000000000001000000000
0000000000000000000000000001000000000
0000000000000000000000000010000000000
0000000000000000000000000000000000000
0000000000000000000000000010000000000
0000000000000000000000000100000000000
0000000000000000000000001000000000000
0000000000000000000000010000000000000
0000000000000000000000010000000000000
0000000000000000000000100000000000000
0000000000000000000011000000000000000
0000000000000000000100000000000000000
0000000000000000111000000000000000000
0000000000000011111111110000000000000
0000000000111110000000001100000000000
0000000000000000000000000110000000000
0000000000000000000000000010000000000
0000000000000000000000000010000000000
0000000000000000000000000010000000000
0000000000000000000000000010000000000
0000000000000000000000000010000000000
0000000000000000000000000010000000000
0000000000000000000000000010000000000
0000000000000000000000000010000000000
0000000000000000000000000100000000000
0000000000000000000000011000000000000
0000000000000000011111110000000000000
0000000011111111100000000000000000000

0000000000001111111111111100000000000
0000000000000000000000000011100000000
0000000000000000000000000000010000000
0000000000000000000000000000001000000
0000000000000000000000000000000100000
0000000000000000000000000000000100000
0000000000000000000000000000000110000
0000000000000000000000000000000010000
0000000000000000000000000000000010000
0000000000000000000000000000000110000
0000000000000000000000000000000100000
0000000000000000000000000000001000000
0000000000000000000000000000001000000
0000000000000000000000000000110000000
0000000000000000000000000001000000000
0000000000000000000000000010000000000
0000000000000000000000011000000000000
0000000000000000000001100000000000000
0000000000000000001110000000000000000
0000000000000011111011111000000000000
0000000000000000000000000111100000000
0000000000000000000000000000011100000
0000000000000000000000000000000100000
0000000000000000000000000000000100000
0000000000000000000000000000000100000
0000000000000000000000000000001100000
0000000000000000000000000000001000000
0000000000000000000000000000110000000
0000000000000000000000000001000000000
0000000000000000000000000010000000000
0000000000000000000000001100000000000
0000000000000000000000010000000000000
0000000000000000000000100000000000000
0000000000000000000011000000000000000
0000000000000000001100000000000000000
0000000000000000110000000000000000000
0001111111111111000000000000000000000

0000000000001010110111111111000000000
0000000000110000000000000001110000000
0000000000000000000000000000011000000
0000000000000000000000000000001100000
0000000000000000000000000000000010000
0000000000000000000000000000000010000
0000000000000000000000000000000010000
0000000000000000000000000000000010000
0000000000000000000000000000000010000
0000000000000000000000000000000010000
0000000000000000000000000000000010000
0000000000000000000000000000000010000
0000000000000000000000000000000100000
0000000000000000000000000000001100000
0000000000000000000000000000011000000
0000000000000000000000000001100000000
0000000000000000000000011110000000000
0000000000000011111111100000000000000
0000000000000001111000000000000000000
0000000000000000000111100000000000000
0000000000000000000000011111100000000
0000000000000000000000000000011100000
0000000000000000000000000000000111000
0000000000000000000000000000000001000
0000000000000000000000000000000001000
0000000000000000000000000000000001000
0000000000000000000000000000000010000
0000000000000000000000000000000010000
0000000000000000000000000000000100000
0000000000000000000000000000001000000
0000000000000000000000000000110000000
0000000000000000000000000000100000000
0000000000000000000000000010000000000
0000000000000000000000000100000000000
0000000000000000000000011000000000000
0000000000000000000011000000000000000
0001111111111111111100000000000000000

0000000000000000101101101111110000000
0000000000010010000000000000011100000
0000000101000000000000000000000100000
0000000000000000000000000000000010000
0000000000000000000000000000000011000
0000000000000000000000000000000001000
0000000000000000000000000000000001000
0000000000000000000000000000000001000
0000000000000000000000000000000111000
0000000000000000000000000000001000000
0000000000000000000000000000010000000
0000000000000000000000000001000000000
0000000000000000000000010100000000000
0000000000000000000001000000000000000
0000000000000000111010000000000000000
0000000000000111100000000000000000000
0000000000000011000000000000000000000
0000000000000000111100000000000000000
0000000000000000000011100000000000000
0000000000000000000000011100000000000
0000000000000000000000000011100000000
0000000000000000000000000000011100000
0000000000000000000000000000000011110
0000000000000000000000000000000000010
0000000000000000000000000000000000010
0000000000000000000000000000000000100
0000000000000000000000000000000001100
0000000000000000000000000000000001000
0000000000000000000000000000000110000
0000000000000000000000000000010000000
0000000000000000000000000000100000000
0000000000000000000000000010000000000
0000000000000000000000000100000000000
0000000000000000000001010000000000000
0000000000000000101100000000000000000
0000000000011011000000000000000000000
1111111111100000000000000000000000000

0000000000000011111111111100000000000
0000000000001100000000000011110000000
0000000001100000000000000000001000000
0000000010000000000000000000000100000
0000000000000000000000000000000100000
0000000000000000000000000000000100000
0000000000000000000000000000000100000
0000000000000000000000000000000100000
0000000000000000000000000000001000000
0000000000000000000000000000001000000
0000000000000000000000000000010000000
0000000000000000000000000000010000000
0000000000000000000000000000100000000
0000000000000000000000000001000000000
0000000000000000000000000011000000000
0000000000000000000111111110000000000
0000000000000000111101000011000000000
0000000000000011111100000000110000000
0000000000000000000000000000001000000
0000000000000000000000000000001100000
0000000000000000000000000000000100000
0000000000000000000000000000000110000
0000000000000000000000000000000010000
0000000000000000000000000000000001000
0000000000000000000000000000000001000
0000000000000000000000000000000001000
0000000000000000000000000000000011000
0000000000000000000000000000000010000
0000000000000000000000000000000010000
0000000000000000000000000000000100000
0000000000000000000000000000000100000
0000000000000000000000000000011000000
0000000000000000000000000000100000000
0000000000000000000000000001000000000
0000000000000000000000001010000000000
0000000000000000000010110000000000000
0011111111111101101100000000000000000

0000000000000010101101111010000000000
0000000010101000000000000010100000000
0000000000000000000000000000100000000
0000000000000000000000000000011000000
0000000000000000000000000000000100000
0000000000000000000000000000000100000
0000000000000000000000000000000100000
0000000000000000000000000000001000000
0000000000000000000000000000001000000
0000000000000000000000000000010000000
0000000000000000000000000000100000000
0000000000000000000000000010000000000
0000000000000000000000000100000000000
0000000000000000000000110000000000000
0000000000000000000110000000000000000
0000000000000000101000000000000000000
0000000000001111000000000000000000000
0000000000001111110111100000000000000
0000000000000000000000011000000000000
0000000000000000000000000110000000000
0000000000000000000000000010000000000
0000000000000000000000000010000000000
0000000000000000000000000010000000000
0000000000000000000000000010000000000
0000000000000000000000000110000000000
0000000000000000000000001100000000000
0000000000000000000000001000000000000
0000000000000000000000010000000000000
0000000000000000000000100000000000000
0000000000000000000011000000000000000
0000000000000000000100000000000000000
0000000000000000010000000000000000000
0000000000000000100000000000000000000
0000000000001101000000000000000000000
0000000000010000000000000000000000000
0000001111100000000000000000000000000
0000011000000000000000000000000000000

0000000000000000000101111110000000000
0000000000000001010000000011000000000
0000000000000100000000000000100000000
0000000000010000000000000000010000000
0000000000000000000000000000001000000
0000000000000000000000000000001100000
0000000000000000000000000000000100000
0000000000000000000000000000000010000
0000000000000000000000000000000010000
0000000000000000000000000000000001000
0000000000000000000000000000000001000
0000000000000000000000000000000001000
0000000000000000000000000000000011000
0000000000000000000000000000000100000
0000000000000000000000000000101000000
0000000000000000000000000010000000000
0000000000000000000000001000000000000
0000000000000000000000110000000000000
0000000000000000000010000000000000000
0000000000000000001111011000000000000
0000000000000001111000000101111000000
0000000000000000000000000000000111000
0000000000000000000000000000000001110
0000000000000000000000000000000000010
0000000000000000000000000000000000010
0000000000000000000000000000000000010
0000000000000000000000000000000000100
0000000000000000000000000000000000000
0000000000000000000000000000000011000
0000000000000000000000000000000100000
0000000000000000000000000000001000000
0000000000000000000000000000010000000
0000000000000000000000000001000000000
0000000000000000000000001010000000000
0111110000000000000000010000000000000
0000001101100000000011100000000000000
0000000000010111111100000000000000000

0000000000000101010100101011000000000
0000000000000000000000000000110000000
0000000000000000000000000000001100000
0000000000000000000000000000000110000
0000000000000000000000000000000010000
0000000000000000000000000000000110000
0000000000000000000000000000000100000
0000000000000000000000000000000100000
0000000000000000000000000000010000000
0000000000000000000000000000100000000
0000000000000000000000000001000000000
0000000000000000000000000100000000000
0000000000000000000000001000000000000
0000000000000000000000100000000000000
0000000000000000000001000000000000000
0000000000000000001100000000000000000
0000000000000000110000000000000000000
0000000000000011000000000000000000000
0000000000001111101011000000000000000
0000000000000000000000110000000000000
0000000000000000000000001000000000000
0000000000000000000000000100000000000
0000000000000000000000000110000000000
0000000000000000000000000010000000000
0000000000000000000000000010000000000
0000000000000000000000000010000000000
0000000000000000000000000000000000000
0000000000000000000000000100000000000
0000000000000000000000000100000000000
0000000000000000000000001000000000000
0000000000000000000000011000000000000
0000000000000000000000100000000000000
0000000000000000000000100000000000000
0000000000000000000010000000000000000
0000000000000000001100000000000000000
0000000000000000110000000000000000000
0000111111111110000000000000000000000

0000000000000000000100101010101100000
0000000000000010010000000000000011000
0000000000010000000000000000000001000
0000000000100000000000000000000001000
0000000000000000000000000000000000100
0000000000000000000000000000000000100
0000000000000000000000000000000000100
0000000000000000000000000000000000100
0000000000000000000000000000000001000
0000000000000000000000000000000001000
0000000000000000000000000000000000000
0000000000000000000000000000000010000
0000000000000000000000000000001000000
0000000000000000000000000000100000000
0000000000000000000000000000000000000
0000000000000000000000000010000000000
0000000000000000000000001000000000000
0000000000000000000000000000000000000
0000000000000000000100100000000000000
0000000000000000010000000000000000000
0000000000111111100000000000000000000
0000000000000000001100000000000000000
0000000000000000000001010000000000000
0000000000000000000000000100000000000
0000000000000000000000000001100000000
0000000000000000000000000000010000000
0000000000000000000000000000011000000
0000000000000000000000000000001000000
0000000000000000000000000000000100000
0000000000000000000000000000000100000
0000000000000000000000000000000100000
0000000000000000000000000000001000000
0000000000000000000000000000001000000
0111110000000000000000000000110000000
0000001010000000000000000001000000000
0000000000010000000000000100000000000
0000000000000100101001010000000000000

0000000000000000000100101010111110000
0000000000000010000000000000000001000
0000000000001000000000000000000001000
0000000000010000000000000000000001000
0000000000000000000000000000000010000
0000000000000000000000000000000100000
0000000000000000000000000000010000000
0000000000000000000000000000000000000
0000000000000000000000000000100000000
0000000000000000000000000010000000000
0000000000000000000000001000000000000
0000000000000000000000010000000000000
0000000000000000000001100000000000000
0000000000000000001110000000000000000
0000000000000000011000000000000000000
0000000000000000010000000000000000000
0000000000000000011000000000000000000
0000000000000000000100000000000000000
0000000000000000000010100000000000000
0000000000000000000000100000000000000
0000000000000000000000001100000000000
0000000000000000000000000011000000000
0000000000000000000000000001000000000
0000000000000000000000000001000000000
0000000000000000000000000001000000000
0000000000000000000000000010000000000
0000000000000000000000000010000000000
0000000000000000000000000100000000000
0000000000000000000000000000000000000
0000000000000000000000001000000000000
0000000000000000000000100000000000000
0000000000000000000001000000000000000
0000000000000000001000000000000000000
0000000000000000010000000000000000000
0000000000000001000000000000000000000
0000000000001100000000000000000000000
0011111111100000000000000000000000000

0000000000000000000000000000000000000
0000000000000000000000000000000000000
0000000000000001000100100101010000000
0000000010010000000000000000001010000
0000001000000000000000000000000001100
0000000000000000000000000000000000110
0000000000000000000000000000000000011
0000000000000000000000000000000000001
0000000000000000000000000000000000001
0000000000000000000000000000000000001
0000000000000000000000000000000000010
0000000000000000000000000000000000010
0000000000000000000000000000000000100
0000000000000000000000000000000010000
0000000000000000000000000000001100000
0000000000000000000000000000100000000
0000000000000000000000001010000000000
0000000000000000000110110000000000000
0000000000000000011111100000000000000
0000000000000000000000001100000000000
0000000000000000000000000011100000000
0000000000000000000000000000110000000
0000000000000000000000000000001000000
0000000000000000000000000000001000000
0000000000000000000000000000001000000
0000000000000000000000000000010000000
0000000000000000000000000000100000000
0000000000000000000000000001000000000
0000000000000000000000000010000000000
0000000000000000000000001000000000000
0000000000000000000001010000000000000
0000000000000000000010000000000000000
1111111111011010101000000000000000000
0000000000000000000000000000000000000
0000000000000000000000000000000000000
0000000000000000000000000000000000000
0000000000000000000000000000000000000

0000000000001000000110101110000000000
0000000000010000000000000001100000000
0000000000000000000000000000100000000
0000000000000000000000000000000000000
0000000000000000000000000000000000000
0000000000000000000000000000100000000
0000000000000000000000000001000000000
0000000000000000000000000010000000000
0000000000000000000000000000000000000
0000000000000000000000000100000000000
0000000000000000000000000000000000000
0000000000000000000000001000000000000
0000000000000000000000000000000000000
0000000000000000000000100000000000000
0000000000000000000001000000000000000
0000000000000000000010000000000000000
0000000000000000000100000000000000000
0000000000000000011000000000000000000
0000000000000000110000000000000000000
0000000000000001100000000000000000000
0000000000000011100000000000000000000
0000000000000000101110100000000000000
0000000000000000000000011110000000000
0000000000000000000000000011000000000
0000000000000000000000000000110000000
0000000000000000000000000000010000000
0000000000000000000000000000010000000
0000000000000000000000000000001000000
0000000000000000000000000000001000000
0000000000000000000000000000001000000
0000000000000000000000000000010000000
0000000000000000000000000000010000000
0000000000000000000000000000010000000
0000000000000000000000000001100000000
0000000000000000000000000010000000000
0000011111010000000000000100000000000
0000010000001101101101101000000000000

0000000000000000101010101010111100000
0000000000000000000000000000000011000
0000000000000000000000000000000000100
0000000000000000000000000000000000010
0000000000000000000000000000000000001
0000000000000000000000000000000000001
0000000000000000000000000000000000001
0000000000000000000000000000000000001
0000000000000000000000000000000000001
0000000000000000000000000000000000010
0000000000000000000000000000000000000
0000000000000000000000000000000000100
0000000000000000000000000000000001000
0000000000000000000000000000000000000
0000000000000000000000000000000100000
0000000000000000000000000000000000000
0000000000000000000000000000010000000
0000000000000000000000000001000000000
0000000000000000000000000100000000000
0000000000000000000000110000000000000
0000000000000000001110000000000000000
0000000000000000110000000000000000000
0000000000000000000110000000000000000
0000000000000000000001010000000000000
0000000000000000000000001000000000000
0000000000000000000000000100000000000
0000000000000000000000000011000000000
0000000000000000000000000000100000000
0000000000000000000000000000100000000
0000000000000000000000000011000000000
0000000000000000000000000100000000000
0000000000000000000001010000000000000
0000000000000000000100000000000000000
0000000000000001110000000000000000000
1111000000101100000000000000000000000
0001110111000000000000000000000000000
0000000000000000000000000000000000000

0000000000000010001010101011111000000
0000000000101000000000000000001100000
0000000000000000000000000000000110000
0000000000000000000000000000000010000
0000000000000000000000000000000000000
0000000000000000000000000000000010000
0000000000000000000000000000000000000
0000000000000000000000000000000010000
0000000000000000000000000000000000000
0000000000000000000000000000000010000
0000000000000000000000000000000100000
0000000000000000000000000000000000000
0000000000000000000000000000000100000
0000000000000000000000000000000100000
0000000000000000000000000000000000000
0000000000000000000000000000001000000
0000000000000000000000000000010000000
0000000000000000000000000000000000000
0000000000000000000000000000100000000
0000000000000000000000000000100000000
0000000000000000000000000001000000000
0000000000000000000000000110000000000
0000000000000000000001111111000000000
0000000000000000000011011000100000000
0000000000000000001111100000010000000
0000000000000000000000000000010000000
0000000000000000000000000000010000000
0000000000000000000000000000100000000
0000000000000000000000000000100000000
0000000000000000000000000000100000000
0000000000000000000000000001000000000
0000000000000000000000000001000000000
0000000000000000000000000010000000000
0001000000000000000000000110000000000
0001000000000000000000001000000000000
0000111110100000000000110000000000000
0000000000010110111101000000000000000

0000000000000010110101010111000000000
0000000000000000000000000000111000000
0000000000000000000000000000000100000
0000000000000000000000000000000010000
0000000000000000000000000000000010000
0000000000000000000000000000000010000
0000000000000000000000000000000010000
0000000000000000000000000000000100000
0000000000000000000000000000000000000
0000000000000000000000000000001000000
0000000000000000000000000000010000000
0000000000000000000000000000100000000
0000000000000000000000000000000000000
0000000000000000000000000001000000000
0000000000000000000000000110000000000
0000000000000000000000000000000000000
0000000000000000000000110000000000000
0000000000000000000001000000000000000
0000000000000000000100000000000000000
0000000000000000011000000000000000000
0000000000000001110111100000000000000
0000000000000010000000011000000000000
0000000000000000000000001100000000000
0000000000000000000000000010000000000
0000000000000000000000000010000000000
0000000000000000000000000010000000000
0000000000000000000000000000000000000
0000000000000000000000000010000000000
0000000000000000000000000100000000000
0000000000000000000000000100000000000
0000000000000000000000001000000000000
0000000000000000000000010000000000000
0000000000000000000000010000000000000
0000000000000000000000100000000000000
0000100000000000000011000000000000000
0000011110000000000100000000000000000
0000000001110101111000000000000000000

0000000001101111011111000000000000000
0000000000000000000000110000000000000
0000000000000000000000001000000000000
0000000000000000000000000100000000000
0000000000000000000000000100000000000
0000000000000000000000000010000000000
0000000000000000000000000010000000000
0000000000000000000000000100000000000
0000000000000000000000000100000000000
0000000000000000000000001000000000000
0000000000000000000000001000000000000
0000000000000000000000010000000000000
0000000000000000000000100000000000000
0000000000000000000110000000000000000
0000000000000000001000000000000000000
0000000000000000100000000000000000000
0000000000000001000000000000000000000
0000000000000110000000000000000000000
0000000000011000000000000000000000000
0000000000111101000000000000000000000
0000000000000000101101000000000000000
0000000000000000000000100000000000000
0000000000000000000000001100000000000
0000000000000000000000000011000000000
0000000000000000000000000000100000000
0000000000000000000000000000100000000
0000000000000000000000000000100000000
0000000000000000000000000000100000000
0000000000000000000000000000100000000
0000000000000000000000000000100000000
0000000000000000000000000001000000000
0000000000000000000000000100000000000
0000000000000000000000001000000000000
0000000000000000000000010000000000000
0000000000000000000101000000000000000
0000000000000000010000000000000000000
0000001111111011000000000000000000000

0000000000000001110111111010000000000
0000000000000000000000000001100000000
0000000000000000000000000000110000000
0000000000000000000000000000011000000
0000000000000000000000000000001100000
0000000000000000000000000000000100000
0000000000000000000000000000000100000
0000000000000000000000000000000110000
0000000000000000000000000000000010000
0000000000000000000000000000000010000
0000000000000000000000000000000010000
0000000000000000000000000000000100000
0000000000000000000000000000000100000
0000000000000000000000000000001100000
0000000000000000000000000000001000000
0000000000000000000000000000010000000
0000000000000000000000000000110000000
0000000000000000000000000011000000000
0000000000000000000001111000000000000
0000000000000000000111000000000000000
0000000000000000000001100000000000000
0000000000000000000000011000000000000
0000000000000000000000000110000000000
0000000000000000000000000011000000000
0000000000000000000000000001100000000
0000000000000000000000000000100000000
0000000000000000000000000000100000000
0000000000000000000000000000100000000
0000000000000000000000000000100000000
0000000000000000000000000000100000000
0000000000000000000000000001000000000
0000000000000000000000000010000000000
0000000000000000000000001000000000000
0000000000000000000000010000000000000
0000000000000000000010100000000000000
0001111111101101101000000000000000000
0001000000000000000000000000000000000

0000000000010111111110000000000000000
0000000011100000000001100000000000000
0000000000000000000000010000000000000
0000000000000000000000001100000000000
0000000000000000000000000110000000000
0000000000000000000000000011000000000
0000000000000000000000000001000000000
0000000000000000000000000001000000000
0000000000000000000000000010000000000
0000000000000000000000000010000000000
0000000000000000000000000100000000000
0000000000000000000000001000000000000
0000000000000000000000110000000000000
0000000000000000000001000000000000000
0000000000000000000110000000000000000
0000000000000000111000000000000000000
0000000000000001110000000000000000000
0000000000000000001110000000000000000
0000000000000000000001000000000000000
0000000000000000000000100000000000000
0000000000000000000000010100000000000
0000000000000000000000000100000000000
0000000000000000000000000011000000000
0000000000000000000000000001000000000
0000000000000000000000000000100000000
0000000000000000000000000000100000000
0000000000000000000000000000010000000
0000000000000000000000000000010000000
0000000000000000000000000000010000000
0000000000000000000000000000010000000
0000000000000000000000000000100000000
0000000000000000000000000001000000000
0000000000000000000000000110000000000
0000000000000000000000001000000000000
0000000000000000000010100000000000000
0000000000000000010100000000000000000
0000000111110110100000000000000000000

