6
10
1
1
1
1
0
0

0000000000000000000000011111110000000
0000000000000000000001100000000000000
0000000000000000000110000000000000000
0000000000000000111000000000000000000
0000000000000001100000000000000000000
0000000000000011000000000000000000000
0000000000000010000000000000000000000
0000000000000100000000000000000000000
0000000000000100000000000000000000000
0000000000001000000000000000000000000
0000000000010000000000000000000000000
0000000000010000000000000000000000000
0000000000100000000000000000000000000
0000000001000000000000000000000000000
0000000001000000000000000000000000000
0000000010000000000000000000000000000
0000000010000000000000000000000000000
0000000010000000000000000000000000000
0000000100000000000000000000000000000
0000000100000000000000000000000000000
0000000100000000000000000000000000000
0000000100000000000000000000000000000
0000001001111111100000000000000000000
0000001110000000111111100000000000000
0000001000000000000000011000000000000
0000001000000000000000001000000000000
0000001000000000000000000100000000000
0000001000000000000000000110000000000
0000001000000000000000000010000000000
0000001000000000000000000010000000000
0000001000000000000000000010000000000
0000001000000000000000000110000000000
0000001000000000000000001100000000000
0000000100000000000000111000000000000
0000000110000000000011100000000000000
0000000011000000011100000000000000000
0000000000111111100000000000000000000

0000000000000000000001111111111000000
0000000000000000001110000000000000000
0000000000000001111000000000000000000
0000000000000110000000000000000000000
0000000000000100000000000000000000000
0000000000001000000000000000000000000
0000000000010000000000000000000000000
0000000000100000000000000000000000000
0000000000100000000000000000000000000
0000000001000000000000000000000000000
0000000010000000000000000000000000000
0000000110000000000000000000000000000
0000000100000000000000000000000000000
0000001000000000000000000000000000000
0000001000000000000000000000000000000
0000001000000000000000000000000000000
0000010000000000000000000000000000000
0000010000000000000000000000000000000
0000010000000000000000000000000000000
0000010000000000000000000000000000000
0000010000000000000000000000000000000
0000010000000001111111100000000000000
0000010111111110000000111000000000000
0000000100000000000000001000000000000
0000010000000000000000000100000000000
0000010000000000000000000100000000000
0000010000000000000000000100000000000
0000001000000000000000000100000000000
0000001000000000000000000100000000000
0000001000000000000000000100000000000
0000000100000000000000000100000000000
0000000100000000000000000100000000000
0000000110000000000000000100000000000
0000000011000000000000000100000000000
0000000001100000000000000100000000000
0000000000111000000000000100000000000
0000000000001111111111111100000000000

0000000000000000000111111111111100000
0000000000000000111000000000000000000
0000000000000011000000000000000000000
0000000000001110000000000000000000000
0000000000010000000000000000000000000
0000000000100000000000000000000000000
0000000001000000000000000000000000000
0000000010000000000000000000000000000
0000000100000000000000000000000000000
0000001000000000000000000000000000000
0000010000000000000000000000000000000
0000010000000000000000000000000000000
0000100000000000000000000000000000000
0000100000000000000000000000000000000
0000100000000000000000000000000000000
0001100000000000000000000000000000000
0001000000000000000000000000000000000
0001000000000000000000000000000000000
0001000000000000000000000000000000000
0001000000000000000000000000000000000
0001111111111111111100000000000000000
0001100000000000000011100000000000000
0001000000000000000000011100000000000
0001000000000000000000000110000000000
0001000000000000000000000011000000000
0001000000000000000000000001100000000
0001000000000000000000000000010000000
0001000000000000000000000000001000000
0001000000000000000000000000001000000
0000100000000000000000000000000100000
0000100000000000000000000000000100000
0000110000000000000000000000011000000
0000011000000000000000000000010000000
0000001100000000000000000001100000000
0000000011000000000000000110000000000
0000000001110000000000011000000000000
0000000000001111111111110000000000000

0000000000000000000111111111111110000
0000000000000000011000000000000000000
0000000000000001100000000000000000000
0000000000000011000000000000000000000
0000000000000100000000000000000000000
0000000000011000000000000000000000000
0000000000100000000000000000000000000
0000000001100000000000000000000000000
0000000010000000000000000000000000000
0000000000000000000000000000000000000
0000000100000000000000000000000000000
0000001100000000000000000000000000000
0000001000000000000000000000000000000
0000010000000000000000000000000000000
0000010000000000000000000000000000000
0000100000000000000000000000000000000
0000100000000000000000000000000000000
0000100000000000000000000000000000000
0000100000000000000000000000000000000
0000101111111111111000000000000000000
0000101000000000001111000000000000000
0000100000000000000001100000000000000
0000100000000000000000011000000000000
0000100000000000000000001100000000000
0000100000000000000000000110000000000
0000100000000000000000000010000000000
0000010000000000000000000010000000000
0000010000000000000000000001000000000
0000001000000000000000000000100000000
0000001000000000000000000000100000000
0000000110000000000000000000100000000
0000000001000000000000000000100000000
0000000001000000000000000011000000000
0000000000100000000000000110000000000
0000000000011000000000011000000000000
0000000000001110000001100000000000000
0000000000000011111110000000000000000

0000000000000000000000111111110110000
0000000000000000011110000000000000000
0000000000000001100000000000000000000
0000000000000110000000000000000000000
0000000000001100000000000000000000000
0000000000000000000000000000000000000
0000000000001000000000000000000000000
0000000000010000000000000000000000000
0000000000100000000000000000000000000
0000000000100000000000000000000000000
0000000001000000000000000000000000000
0000000000000000000000000000000000000
0000000010000000000000000000000000000
0000000000000000000000000000000000000
0000000100000000000000000000000000000
0000000000000000000000000000000000000
0000001000000000000000000000000000000
0000001000111111111111100000000000000
0000010011100000000000111100000000000
0000000010000000000000000110000000000
0000010000000000000000000001000000000
0000010000000000000000000000100000000
0000100000000000000000000000010000000
0000100000000000000000000000011000000
0000100000000000000000000000001000000
0000100000000000000000000000001100000
0000100000000000000000000000000100000
0000100000000000000000000000000100000
0000100000000000000000000000000100000
0000010000000000000000000000000100000
0000001100000000000000000000000100000
0000000010000000000000000000000000000
0000000010000000000000000000000100000
0000000000100000000000000000000100000
0000000000011000000000000000001100000
0000000000000110000000000001110000000
0000000000000011111111111110000000000

0000000000000000000000001111000000000
0000000000000000000000110000000000000
0000000000000000000001100000000000000
0000000000000000000010000000000000000
0000000000000000001100000000000000000
0000000000000000010000000000000000000
0000000000000001100000000000000000000
0000000000000010000000000000000000000
0000000000000100000000000000000000000
0000000000001000000000000000000000000
0000000000000000000000000000000000000
0000000000001000000000000000000000000
0000000000010000000000000000000000000
0000000000100000000000000000000000000
0000000000100000000000000000000000000
0000000000000000000000000000000000000
0000000001000000000000000000000000000
0000000000000000000000000000000000000
0000000010000000000000000000000000000
0000000000000000000000000000000000000
0000000010000000000000000000000000000
0000000100000000000000000000000000000
0000000000000000000000000000000000000
0000000100000000000000000000000000000
0000001000000000000000000000000000000
0000001000000000000000000000000000000
0000000001111111111111111100000000000
0000001011000000000000000110000000000
0000001000000000000000000001000000000
0000001000000000000000000001100000000
0000001000000000000000000000100000000
0000001000000000000000000000110000000
0000001000000000000000000000110000000
0000001000000000000000000011000000000
0000001100000000000000101100000000000
0000000011000000000111000000000000000
0000000000111101110000000000000000000

0000000000000000000000000001110000000
0000000000000000000000001010000000000
0000000000000000011111101000000000000
0000000000000011100000000000000000000
0000000000011100000000000000000000000
0000000001100000000000000000000000000
0000000110000000000000000000000000000
0000001100000000000000000000000000000
0000011000000000000000000000000000000
0000010000000000000000000000000000000
0000100000000000000000000000000000000
0001100000000000000000000000000000000
0001000000000000000000000000000000000
0010000000000000000000000000000000000
0010000000000000000000000000000000000
0010000000000000000000000000000000000
0010000000000000000000000000000000000
0010000000000000000000000000000000000
0010000111111111111111111100000000000
0010001000000000000000000011000000000
0010010000000000000000000001000000000
0010010000000000000000000001100000000
0010110000000000000000000000111000000
0010100000000000000000000000001000000
0010100000000000000000000000001100000
0010000000000000000000000000000110000
0010000000000000000000000000000010000
0010000000000000000000000000000010000
0010000000000000000000000000000010000
0010000000000000000000000000000110000
0010000000000000000000000000000100000
0001000000000000000000000000001000000
0000100000000000000000000000001000000
0000011100000000000000000000011000000
0000000011100000000000000000100000000
0000000000110000000000000001000000000
0000000000001111111111111111000000000

0000000000000000001111101101110100000
0000000000000001010000000000000000000
0000000000000111000000000000000000000
0000000000001000000000000000000000000
0000000000110000000000000000000000000
0000000001000000000000000000000000000
0000000010000000000000000000000000000
0000000000000000000000000000000000000
0000000010000000000000000000000000000
0000000000000000000000000000000000000
0000001000000000000000000000000000000
0000001000000000000000000000000000000
0000000000000000000000000000000000000
0000010000000000000000000000000000000
0000100000000000000000000000000000000
0000000000000000000000000000000000000
0000100000000000000000000000000000000
0000000000000000000000000000000000000
0001000000000000000000000000000000000
0000000000000000000000000000000000000
0001111111111100000000000000000000000
0001000000000111111000000000000000000
0000000000000000000110000000000000000
0001000000000000000010000000000000000
0001000000000000000001000000000000000
0001000000000000000001100000000000000
0000000000000000000000100000000000000
0001000000000000000000010000000000000
0001000000000000000000010000000000000
0000000000000000000000010000000000000
0001000000000000000000010000000000000
0001000000000000000000010000000000000
0000100000000000000000010000000000000
0000100000000000000000010000000000000
0000110000000000000000010000000000000
0000001010000000000000010000000000000
0000000001011011011111110000000000000

0000000000000000000110111101101101000
0000000000000000001000000000000000000
0000000000000001110000000000000000000
0000000000000010000000000000000000000
0000000000001100000000000000000000000
0000000000110000000000000000000000000
0000000001000000000000000000000000000
0000000010000000000000000000000000000
0000000100000000000000000000000000000
0000000100000000000000000000000000000
0000001000000000000000000000000000000
0000010000000000000000000000000000000
0000000000000000000000000000000000000
0000010000000000000000000000000000000
0000100000000000000000000000000000000
0000100000000000000000000000000000000
0000100000000000000000000000000000000
0001000000000000000000000000000000000
0000000000000000000000000000000000000
0001000000000111111100000000000000000
0001000001111100000010100000000000000
0000000111000000000000011000000000000
0001001100000000000000000110000000000
0001011000000000000000000001100000000
0001000000000000000000000000110000000
0001000000000000000000000000010000000
0001000000000000000000000000011000000
0001000000000000000000000000001000000
0001000000000000000000000000010000000
0001000000000000000000000000010000000
0000100000000000000000000000100000000
0000100000000000000000000001000000000
0000110000000000000000000011000000000
0000010000000000000000000110000000000
0000001100000000000000011000000000000
0000000111000000000011100000000000000
0000000000101110110100000000000000000

0000000000000000111111111110000000000
0000000000000111000000000000000000000
0000000000011000000000000000000000000
0000000000100000000000000000000000000
0000000001000000000000000000000000000
0000000010000000000000000000000000000
0000000100000000000000000000000000000
0000001000000000000000000000000000000
0000001000000000000000000000000000000
0000010000000000000000000000000000000
0000100000000000000000000000000000000
0000000000000000000000000000000000000
0001000000000000000000000000000000000
0010000000000000000000000000000000000
0000000000000000000000000000000000000
0010000000000000000000000000000000000
0100000000000000011111111111011000000
1000000000000111100000000000000110000
1000000000011100000000000000000000110
1000000001110000000000000000000000001
1000001110000000000000000000000000001
1000001000000000000000000000000000001
1000000000000000000000000000000000001
1000000000000000000000000000000000011
1000000000000000000000000000000000110
1000000000000000000000000000000000100
1000000000000000000000000000000011000
1000000000000000000000000000000010000
1000000000000000000000000000000100000
1000000000000000000000000000001000000
0100000000000000000000000000010000000
0010000000000000000000000000100000000
0001000000000000000000000001000000000
0000010000000000000000000010000000000
0000001010000000000000010100000000000
0000000000100000000001100000000000000
0000000000001110111110000000000000000

