a
65
1
1
0
0
0
0

0000000000000001100000000000000000000
0000000000000001010000000000000000000
0000000000000010010000000000000000000
0000000000000100000000000000000000000
0000000000001100001000000000000000000
0000000000001000000100000000000000000
0000000000001000000000000000000000000
0000000000001000000010000000000000000
0000000000010000000000000000000000000
0000000000100000000010000000000000000
0000000000100000000001000000000000000
0000000000000000000000000000000000000
0000000001000000000000100000000000000
0000000001000000000000100000000000000
0000000000000000000000010000000000000
0000000010000000000000010000000000000
0000000000000000000000001000000000000
0000000100000000000000001100000000000
0000000100000000000000000100000000000
0000000000000000000000000010000000000
0000001000000000000000000001000000000
0000010000000000000000000001000000000
0000000000000000000000000000100000000
0000010000000000000000000000100000000
0000000000000000000000000000010000000
0000100000000000000000000000001000000
0000000000000000000000000000001000000
0001000000000000000000000000000100000
0100000000000000000000000000000100000
0000000000000000000000000000000010000
1000000000000000000000000000000010000
0000000000000000000000000000000001000
0000000000000000000000000000000000100
0000000000000000000000000000000000100
0000000000000000000000000000000000100
0000000000000000000000000000000000100
0000000000000000000000000000000000110

0000000000000001000000000000000000000
0000000000000001010000000000000000000
0000000000000001000000000000000000000
0000000000000000001000000000000000000
0000000000000010000000000000000000000
0000000000000100000100000000000000000
0000000000000000000000000000000000000
0000000000000100000010000000000000000
0000000000010000000001000000000000000
0000000000000000000000000000000000000
0000000000010000000000000000000000000
0000000000010000000000100000000000000
0000000000000000000000000000000000000
0000000000000000000000010000000000000
0000000001000000000000001000000000000
0000000000000000000000000000000000000
0000000010000000000000000100000000000
0000000000000000000000000000000000000
0000000000000000000000000010000000000
0000000010000000000000000000000000000
0000000000000000000000000001000000000
0000000000000000000000000001000000000
0000001000000000000000000000000000000
0000000000000000000000000000100000000
0000010000000000000000000000000000000
0000000000000000000000000000010000000
0000010000000000000000000000010000000
0000000000000000000000000000001000000
0000100000000000000000000000001000000
0000000000000000000000000000000100000
0000000000000000000000000000000100000
0001000000000000000000000000000010000
0000000000000000000000000000000010000
0000000000000000000000000000000001000
0000000000000000000000000000000001000
0100000000000000000000000000000001000
0100000000000000000000000000000000000

0000000000000000010000000000000000000
0000000000000000110000000000000000000
0000000000000000110000000000000000000
0000000000000001001000000000000000000
0000000000000001001000000000000000000
0000000000000000001000000000000000000
0000000000000010000100000000000000000
0000000000000000000010000000000000000
0000000000000100000000000000000000000
0000000000000000000010000000000000000
0000000000000100000001000000000000000
0000000000000000000000000000000000000
0000000000000000000001000000000000000
0000000000000000000000000000000000000
0000000000010000000000100000000000000
0000000000000000000000000000000000000
0000000000100000000000010000000000000
0000000000000000000000000000000000000
0000000000000000000000001000000000000
0000000000000000000000000100000000000
0000000000000000000000000000000000000
0000000000000000000000000100000000000
0000000010000000000000000010000000000
0000000000000000000000000000000000000
0000000000000000000000000001000000000
0000000000000000000000000000000000000
0000000000000000000000000001000000000
0000000000000000000000000000100000000
0000000000000000000000000000010000000
0000000000000000000000000000010000000
0000000000000000000000000000000000000
0000100000000000000000000000001000000
0000000000000000000000000000001000000
0000000000000000000000000000000100000
0000000000000000000000000000000100000
0001000000000000000000000000000100000
0000000000000000000000000000000110000

0000000000000000000000000000000000000
0000000000000000000000000000000000000
0000000000000000000000000000000000000
0000000000000000000000000000000000000
0000000000000001111111000000000000000
0000000000000110000000110000000000000
0000000000001000000000011000000000000
0000000000010000000000000100000000000
0000000000100000000000000010000000000
0000000001000000000000000011000000000
0000000001000000000000000001000000000
0000000000000000000000000000100000000
0000000010000000000000000000100000000
0000000010000000000000000000010000000
0000000100000000000000000000011000000
0000000000000000000000000000001000000
0000001000000000000000000000000100000
0000000000000000000000000000000100000
0000010000000000000000000000000110000
0000010000000000000000000000000010000
0000100000000000000000000000000010000
0001000000000000000000000000000001000
0001000000000000000000000000000001000
0010000000000000000000000000000001100
0010000000000000000000000000000000100
0000000000000000000000000000000000100
0100000000000000000000000000000000100
1000000000000000000000000000000000010
1000000000000000000000000000000000011
1000000000000000000000000000000000001
0000000000000000000000000000000000001
0000000000000000000000000000000000001
0000000000000000000000000000000000001
0000000000000000000000000000000000000
0000000000000000000000000000000000000
0000000000000000000000000000000000000
0000000000000000000000000000000000000

0000000000000001111110000000000000000
0000000000000010000001000000000000000
0000000000000100000000100000000000000
0000000000010000000000010000000000000
0000000000010000000000001000000000000
0000000000000000000000001000000000000
0000000001000000000000000100000000000
0000000001000000000000000010000000000
0000000010000000000000000010000000000
0000000000000000000000000001000000000
0000000000000000000000000001000000000
0000000000000000000000000000100000000
0000010000000000000000000000100000000
0000010000000000000000000000010000000
0000000000000000000000000000010000000
0000000000000000000000000000010000000
0000000000000000000000000000001000000
0010000000000000000000000000001000000
0000000000000000000000000000000000000
0000000000000000000000000000000100000
0000000000000000000000000000000100000
0100000000000000000000000000000100000
0000000000000000000000000000000010000
0000000000000000000000000000000010000
0000000000000000000000000000000001000
1000000000000000000000000000000001000
0000000000000000000000000000000001000
0000000000000000000000000000000000100
0000000000000000000000000000000000100
0000000000000000000000000000000000100
0000000000000000000000000000000000010
0000000000000000000000000000000000010
0000000000000000000000000000000000010
0000000000000000000000000000000000001
0000000000000000000000000000000000001
0000000000000000000000000000000000001
0000000000000000000000000000000000000

0000000000000000000000000000000000000
0000000000000000000000000000000000000
0000000000000000111110000000000000000
0000000000000011000001100000000000000
0000000000000110000000010000000000000
0000000000000100000000010000000000000
0000000000011000000000001000000000000
0000000000000000000000000100000000000
0000000000000000000000000010000000000
0000000001000000000000000010000000000
0000000010000000000000000011000000000
0000000010000000000000000001000000000
0000000000000000000000000000000000000
0000001000000000000000000000100000000
0000000000000000000000000000100000000
0000010000000000000000000000010000000
0000000000000000000000000000010000000
0000100000000000000000000000001000000
0000000000000000000000000000001100000
0001000000000000000000000000000100000
0000000000000000000000000000000010000
0000000000000000000000000000000010000
0010000000000000000000000000000001000
0000000000000000000000000000000001000
0000000000000000000000000000000000100
0000000000000000000000000000000000100
0000000000000000000000000000000000100
0100000000000000000000000000000000100
0000000000000000000000000000000000010
0000000000000000000000000000000000011
0000000000000000000000000000000000001
1000000000000000000000000000000000001
0000000000000000000000000000000000001
0000000000000000000000000000000000001
0000000000000000000000000000000000000
0000000000000000000000000000000000000
0000000000000000000000000000000000000

0000000000000000000000000000000000000
0000000000000001011110000000000000000
0000000000000011000001000000000000000
0000000000000100000001000000000000000
0000000000011000000001000000000000000
0000000000010000000000100000000000000
0000000000100000000000010000000000000
0000000000100000000000000000000000000
0000000000100000000000001000000000000
0000000000100000000000001100000000000
0000000001000000000000000000000000000
0000000000000000000000000010000000000
0000000010000000000000000010000000000
0000000000000000000000000000000000000
0000000000000000000000000001000000000
0000000100000000000000000001000000000
0000000000000000000000000000100000000
0000000000000000000000000000000000000
0000011000000000000000000000011000000
0000000000000000000000000000001000000
0000100000000000000000000000001000000
0000000000000000000000000000000100000
0000100000000000000000000000000110000
0000100000000000000000000000000010000
0000000000000000000000000000000011000
0001000000000000000000000000000001000
0000000000000000000000000000000001000
0000000000000000000000000000000000100
0010000000000000000000000000000000100
0100000000000000000000000000000000010
0100000000000000000000000000000000011
0100000000000000000000000000000000001
1000000000000000000000000000000000001
1000000000000000000000000000000000001
1000000000000000000000000000000000000
0000000000000000000000000000000000000
0000000000000000000000000000000000000

0000000000000110000000000000000000000
0000000000001001000000000000000000000
0000000000001000100000000000000000000
0000000000011000010000000000000000000
0000000000000000010000000000000000000
0000000000010000000000000000000000000
0000000000100000000100000000000000000
0000000000100000000010000000000000000
0000000000000000000000000000000000000
0000000000100000000001000000000000000
0000000000000000000000100000000000000
0000000001000000000000010000000000000
0000000000000000000000001000000000000
0000000000000000000000000000000000000
0000000010000000000000000100000000000
0000000010000000000000000010000000000
0000000010000000000000000000000000000
0000000000000000000000000001000000000
0000000000000000000000000000100000000
0000000000000000000000000000000000000
0000001000000000000000000000100000000
0000001000000000000000000000010000000
0000000000000000000000000000010000000
0000010000000000000000000000001000000
0000100000000000000000000000000100000
0000000000000000000000000000000100000
0000100000000000000000000000000010000
0000000000000000000000000000000010000
0000000000000000000000000000000001000
0010000000000000000000000000000001100
0010000000000000000000000000000000100
0100000000000000000000000000000000100
0100000000000000000000000000000000100
0000000000000000000000000000000000100
0000000000000000000000000000000000100
0000000000000000000000000000000000100
0000000000000000000000000000000000100

0000000000000000000100000000000000000
0000000000000000001110000000000000000
0000000000000000001010000000000000000
0000000000000000010000000000000000000
0000000000000000010001000000000000000
0000000000000000010000100000000000000
0000000000000000010000010000000000000
0000000000000000100000000000000000000
0000000000000001000000001000000000000
0000000000000000000000000000000000000
0000000000000001000000000010000000000
0000000000000010000000000010000000000
0000000000000000000000000000000000000
0000000000000000000000000000000000000
0000000000001000000000000001000000000
0000000000001000000000000000100000000
0000000000000000000000000000000000000
0000000000000000000000000000010000000
0000000000000000000000000000001000000
0000000000000000000000000000001000000
0000000000000000000000000000000100000
0000000001000000000000000000000100000
0000000000000000000000000000000110000
0000000000000000000000000000000010000
0000000000000000000000000000000010000
0000000100000000000000000000000001000
0000000000000000000000000000000001100
0000000000000000000000000000000000100
0000000000000000000000000000000000110
0000000000000000000000000000000000010
0000100000000000000000000000000000010
0000000000000000000000000000000000010
0000000000000000000000000000000000000
0000000000000000000000000000000000000
0000000000000000000000000000000000000
0100000000000000000000000000000000000
0100000000000000000000000000000000000

0000000000000000000000000000000000000
0000000001111111110000000000000000000
0000000110000000001100000000000000000
0000001000000000000011100000000000000
0000000000000000000000110000000000000
0000010000000000000000001000000000000
0000100000000000000000000100000000000
0000100000000000000000000100000000000
0000100000000000000000000011000000000
0000000000000000000000000001000000000
0000000000000000000000000001000000000
0001000000000000000000000000100000000
0000000000000000000000000000100000000
0010000000000000000000000000010000000
0010000000000000000000000000011000000
0000000000000000000000000000001000000
0000000000000000000000000000001000000
0000000000000000000000000000000100000
0000000000000000000000000000000100000
0100000000000000000000000000000010000
0000000000000000000000000000000010000
0000000000000000000000000000000010000
0000000000000000000000000000000001000
0000000000000000000000000000000001100
0100000000000000000000000000000000100
0000000000000000000000000000000000100
0000000000000000000000000000000000010
0000000000000000000000000000000000010
1000000000000000000000000000000000001
0000000000000000000000000000000000001
0000000000000000000000000000000000001
0000000000000000000000000000000000001
0000000000000000000000000000000000001
1000000000000000000000000000000000001
1000000000000000000000000000000000000
0000000000000000000000000000000000000
0000000000000000000000000000000000000

0000000000000000000000000000000000000
0000000000000000000000000000000000000
0000000000000000000000000000000000000
0000000000000111111110000000000000000
0000000000010000000001100000000000000
0000000000100000000000011000000000000
0000000001000000000000000110000000000
0000000010000000000000000001000000000
0000000100000000000000000001100000000
0000001000000000000000000000011000000
0000001000000000000000000000001000000
0000100000000000000000000000001000000
0001000000000000000000000000001000000
0001000000000000000000000000000100000
0011000000000000000000000000000010000
0000000000000000000000000000000010000
0010000000000000000000000000000011000
0000000000000000000000000000000001000
0100000000000000000000000000000001000
0100000000000000000000000000000001100
0000000000000000000000000000000000100
0000000000000000000000000000000000100
1000000000000000000000000000000000010
0000000000000000000000000000000000010
1000000000000000000000000000000000010
0000000000000000000000000000000000010
0000000000000000000000000000000000010
0000000000000000000000000000000000001
0000000000000000000000000000000000001
1000000000000000000000000000000000001
0000000000000000000000000000000000001
0000000000000000000000000000000000001
1000000000000000000000000000000000001
0000000000000000000000000000000000001
0000000000000000000000000000000000000
0000000000000000000000000000000000000
0000000000000000000000000000000000000

0000000000000000000000000000000000000
0000000000000000000000000000000000000
0000000001111111111100000000000000000
0000000110000000000110000000000000000
0000001100000000000001010000000000000
0000001000000000000000010000000000000
0000010000000000000000001000000000000
0000100000000000000000000100000000000
0001100000000000000000000011000000000
0000000000000000000000000001000000000
0001000000000000000000000001100000000
0001000000000000000000000000110000000
0010000000000000000000000000001000000
0100000000000000000000000000000100000
0100000000000000000000000000000100000
0000000000000000000000000000000010000
0100000000000000000000000000000010000
1000000000000000000000000000000001000
1000000000000000000000000000000001000
1000000000000000000000000000000000100
1000000000000000000000000000000000100
1000000000000000000000000000000000010
0000000000000000000000000000000000010
1000000000000000000000000000000000010
0000000000000000000000000000000000000
1000000000000000000000000000000000010
0000000000000000000000000000000000010
1000000000000000000000000000000000011
1000000000000000000000000000000000001
0000000000000000000000000000000000001
1000000000000000000000000000000000001
0000000000000000000000000000000000001
0000000000000000000000000000000000001
0000000000000000000000000000000000001
0000000000000000000000000000000000001
0000000000000000000000000000000000000
0000000000000000000000000000000000000

0000000000000000000000000000000000000
0000000000000000000000000000000000000
0000000000000000000000000000000000000
0000000000000000000000000000000000000
0000000000000000000000000000000000000
0000000000000000000000000000000000000
0000000000001111111000000000000000000
0000000000110000000011000000000000000
0000000001000000000000100000000000000
0000000011000000000000011000000000000
0000000010000000000000001000000000000
0000000100000000000000000110000000000
0000000100000000000000000001000000000
0000001000000000000000000001100000000
0000010000000000000000000000110000000
0000010000000000000000000000010000000
0000100000000000000000000000001000000
0001000000000000000000000000001100000
0001000000000000000000000000000110000
0000000000000000000000000000000010000
0001000000000000000000000000000001000
0010000000000000000000000000000000100
0000000000000000000000000000000000100
0100000000000000000000000000000000010
0100000000000000000000000000000000010
0100000000000000000000000000000000010
0000000000000000000000000000000000001
0100000000000000000000000000000000001
1000000000000000000000000000000000001
1000000000000000000000000000000000001
1000000000000000000000000000000000001
0000000000000000000000000000000000000
0000000000000000000000000000000000000
0000000000000000000000000000000000000
0000000000000000000000000000000000000
0000000000000000000000000000000000000
0000000000000000000000000000000000000

0000000000000000000000000000000000000
0000000000000000000000000000000000000
0000000000000000000000000000000000000
0000000000000000000000000000000000000
0000000000000000000000000000000000000
0000000000000000000000000000000000000
0000000000000000000000000000000000000
0000000000000000000000000000000000000
0000000001111111111111110000000000000
0000000110000000000000001000000000000
0000001100000000000000001100000000000
0000011000000000000000000010000000000
0000010000000000000000000001000000000
0000100000000000000000000001100000000
0001000000000000000000000000010000000
0001000000000000000000000000001000000
0010000000000000000000000000000100000
0010000000000000000000000000000100000
0100000000000000000000000000000110000
0100000000000000000000000000000011000
0100000000000000000000000000000001100
0100000000000000000000000000000000110
0100000000000000000000000000000000010
1100000000000000000000000000000000001
1000000000000000000000000000000000001
1000000000000000000000000000000000001
0000000000000000000000000000000000001
0000000000000000000000000000000000001
0000000000000000000000000000000000000
0000000000000000000000000000000000000
0000000000000000000000000000000000000
0000000000000000000000000000000000000
0000000000000000000000000000000000000
0000000000000000000000000000000000000
0000000000000000000000000000000000000
0000000000000000000000000000000000000
0000000000000000000000000000000000000

0000000000000010000000000000000000000
0000000000000010000000000000000000000
0000000000000010000000000000000000000
0000000000000001000000000000000000000
0000000000000100100000000000000000000
0000000000000100000000000000000000000
0000000000001000010000000000000000000
0000000000000000000000000000000000000
0000000000001000010000000000000000000
0000000000001000000000000000000000000
0000000000000000001000000000000000000
0000000000001000000000000000000000000
0000000000000000000010000000000000000
0000000000010000000010000000000000000
0000000000000000000000000000000000000
0000000000010000000001000000000000000
0000000000000000000001000000000000000
0000000000100000000000100000000000000
0000000000100000000000000000000000000
0000000000000000000000010000000000000
0000000000100000000000010000000000000
0000000001000000000000010000000000000
0000000000000000000000010000000000000
0000000000000000000000001000000000000
0000000001000000000000001000000000000
0000000000000000000000001000000000000
0000000001000000000000000100000000000
0000000000000000000000000100000000000
0000000001000000000000000100000000000
0000000000000000000000000100000000000
0000000001000000000000000010000000000
0000000010000000000000000010000000000
0000000000000000000000000010000000000
0000000010000000000000000010000000000
0000000010000000000000000010000000000
0000000000000000000000000010000000000
0000000000000000000000000010000000000

0000000000000000110000000000000000000
0000000000000001101000000000000000000
0000000000000001001000000000000000000
0000000000000010000000000000000000000
0000000000000010000100000000000000000
0000000000000000000000000000000000000
0000000000000100000010000000000000000
0000000000000100000000000000000000000
0000000000000100000001000000000000000
0000000000000000000000010000000000000
0000000000010000000000000000000000000
0000000000000000000000010000000000000
0000000000010000000000000000000000000
0000000000000000000000000100000000000
0000000000100000000000000000000000000
0000000000000000000000000100000000000
0000000001000000000000000010000000000
0000000000000000000000000001000000000
0000000001000000000000000001000000000
0000000000000000000000000000100000000
0000000010000000000000000000010000000
0000000000000000000000000000011000000
0000000100000000000000000000000000000
0000000000000000000000000000001100000
0000001000000000000000000000000100000
0000010000000000000000000000000010000
0000000000000000000000000000000010000
0000100000000000000000000000000001000
0000000000000000000000000000000000100
0000000000000000000000000000000000100
0001000000000000000000000000000000010
0000000000000000000000000000000000010
0010000000000000000000000000000000010
0000000000000000000000000000000000001
0100000000000000000000000000000000001
0000000000000000000000000000000000000
1000000000000000000000000000000000000

0000000000100000000000000000000000000
0000000000110000000000000000000000000
0000000000100000000000000000000000000
0000000000100100000000000000000000000
0000000000100000000000000000000000000
0000000000100000000000000000000000000
0000000001000001000000000000000000000
0000000001000000100000000000000000000
0000000000000000000000000000000000000
0000000010000000010000000000000000000
0000000010000000000000000000000000000
0000000000000000001000000000000000000
0000000100000000000100000000000000000
0000000000000000000010000000000000000
0000000100000000000000000000000000000
0000000000000000000001000000000000000
0000001000000000000001000000000000000
0000000000000000000001000000000000000
0000001000000000000000100000000000000
0000000000000000000000100000000000000
0000000000000000000000010000000000000
0000000000000000000000010000000000000
0000000000000000000000001000000000000
0000000000000000000000000100000000000
0000000000000000000000000100000000000
0000100000000000000000000010000000000
0000000000000000000000000001000000000
0000100000000000000000000001000000000
0000000000000000000000000000000000000
0000000000000000000000000000100000000
0001000000000000000000000000010000000
0001000000000000000000000000011000000
0001000000000000000000000000001000000
0000000000000000000000000000000100000
0000000000000000000000000000000010000
0000000000000000000000000000000010000
0000000000000000000000000000000010000

0000000000000000000001000000000000000
0000000000000000000001000000000000000
0000000000000000000010100000000000000
0000000000000000000010000000000000000
0000000000000000001100010000000000000
0000000000000000001000000000000000000
0000000000000000010000010000000000000
0000000000000000000000000000000000000
0000000000000000100000000000000000000
0000000000000000100000000100000000000
0000000000000001000000000000000000000
0000000000000001000000000001000000000
0000000000000000000000000000000000000
0000000000000010000000000000000000000
0000000000000000000000000000000000000
0000000000000000000000000001000000000
0000000000000000000000000000000000000
0000000000001000000000000000100000000
0000000000001000000000000000000000000
0000000000000000000000000000010000000
0000000000010000000000000000001000000
0000000000100000000000000000000100000
0000000000000000000000000000000000000
0000000000000000000000000000000100000
0000000000000000000000000000000100000
0000000010000000000000000000000010000
0000000010000000000000000000000001000
0000000000000000000000000000000001000
0000000100000000000000000000000001000
0000001000000000000000000000000001000
0000000000000000000000000000000001000
0000010000000000000000000000000001000
0000100000000000000000000000000001000
0000100000000000000000000000000000000
0000000000000000000000000000000000000
0001000000000000000000000000000000000
0001000000000000000000000000000000000

0000000000000000000000000000000000000
0000000000000000000000000000000000000
0000000000000000001110000000000000000
0000000000000000010010000000000000000
0000000000000000100010000000000000000
0000000000000000100001000000000000000
0000000000000001000000100000000000000
0000000000000001000000000000000000000
0000000000000000000000010000000000000
0000000000000010000000011000000000000
0000000000000100000000001000000000000
0000000000001000000000000100000000000
0000000000000000000000000010000000000
0000000000001000000000000010000000000
0000000000010000000000000001000000000
0000000000000000000000000000110000000
0000000000100000000000000000010000000
0000000000000000000000000000010000000
0000000001000000000000000000001000000
0000000010000000000000000000000100000
0000000000000000000000000000000010000
0000000100000000000000000000000010000
0000001000000000000000000000000011000
0000000000000000000000000000000001000
0000010000000000000000000000000001100
0000000000000000000000000000000000110
0000100000000000000000000000000000001
0000100000000000000000000000000000001
0000000000000000000000000000000000001
0001000000000000000000000000000000001
0000000000000000000000000000000000001
0010000000000000000000000000000000000
0100000000000000000000000000000000000
0000000000000000000000000000000000000
1000000000000000000000000000000000000
0000000000000000000000000000000000000
0000000000000000000000000000000000000

0000000000000000000000000000000000000
0000000000000000000110000000000000000
0000000000000000000101000000000000000
0000000000000000001000100000000000000
0000000000000000001000000000000000000
0000000000000000010000010000000000000
0000000000000000010000001000000000000
0000000000000000100000000000000000000
0000000000000001000000000100000000000
0000000000000000000000000010000000000
0000000000000010000000000000000000000
0000000000000000000000000001000000000
0000000000000010000000000000100000000
0000000000000100000000000000100000000
0000000000000000000000000000000000000
0000000000001000000000000000011000000
0000000000010000000000000000000000000
0000000000000000000000000000001000000
0000000000100000000000000000000100000
0000000000000000000000000000000100000
0000000001000000000000000000000100000
0000000010000000000000000000000010000
0000000000000000000000000000000001000
0000000100000000000000000000000000100
0000000000000000000000000000000000100
0000000000000000000000000000000000100
0000001000000000000000000000000000011
0000000000000000000000000000000000001
0000010000000000000000000000000000001
0000000000000000000000000000000000001
0001000000000000000000000000000000000
0000000000000000000000000000000000000
0010000000000000000000000000000000000
0100000000000000000000000000000000000
0000000000000000000000000000000000000
1000000000000000000000000000000000000
0000000000000000000000000000000000000

0000000000000001000000000000000000000
0000000000000011000000000000000000000
0000000000000110100000000000000000000
0000000000000100000000000000000000000
0000000000000100100000000000000000000
0000000000000100010000000000000000000
0000000000000000000000000000000000000
0000000000001000001000000000000000000
0000000000010000000100000000000000000
0000000000000000000000000000000000000
0000000000010000000100000000000000000
0000000000010000000010000000000000000
0000000000000000000000000000000000000
0000000000000000000010000000000000000
0000000000100000000001000000000000000
0000000000000000000001000000000000000
0000000000000000000000100000000000000
0000000000100000000000100000000000000
0000000000000000000000100000000000000
0000000000100000000000010000000000000
0000000000000000000000000000000000000
0000000001000000000000001000000000000
0000000000000000000000000100000000000
0000000000000000000000000000000000000
0000000001000000000000000100000000000
0000000000000000000000000100000000000
0000000000000000000000000010000000000
0000000000000000000000000010000000000
0000000000000000000000000011000000000
0000000010000000000000000001000000000
0000000000000000000000000001000000000
0000000000000000000000000001100000000
0000000010000000000000000000100000000
0000000000000000000000000000100000000
0000000100000000000000000000000000000
0000000000000000000000000000000000000
0000000100000000000000000000000000000

0000000000000000010000000000000000000
0000000000000000111000000000000000000
0000000000000001001000000000000000000
0000000000000001001000000000000000000
0000000000000000001100000000000000000
0000000000000010000000000000000000000
0000000000000000000010000000000000000
0000000000000100000001000000000000000
0000000000001000000000100000000000000
0000000000000000000000000000000000000
0000000000000000000000100000000000000
0000000000000000000000010000000000000
0000000000000000000000000000000000000
0000000000000000000000001000000000000
0000000000000000000000000000000000000
0000000001000000000000000100000000000
0000000000000000000000000010000000000
0000000000000000000000000000000000000
0000000000000000000000000001000000000
0000000100000000000000000000100000000
0000000000000000000000000000000000000
0000000000000000000000000000010000000
0000000000000000000000000000010000000
0000100000000000000000000000000000000
0000000000000000000000000000001000000
0000000000000000000000000000000100000
0000000000000000000000000000000010000
0000000000000000000000000000000001000
0001000000000000000000000000000001000
0000000000000000000000000000000000100
0000000000000000000000000000000000100
0100000000000000000000000000000000010
0000000000000000000000000000000000011
0000000000000000000000000000000000001
1000000000000000000000000000000000001
0000000000000000000000000000000000001
0000000000000000000000000000000000001

0000000000000000000000000000000000000
0000000000000000000000000000000000000
0000000000000000000011100000000000000
0000000000000000000010100000000000000
0000000000000000000100010000000000000
0000000000000000000100010000000000000
0000000000000000001000001000000000000
0000000000000000010000000000000000000
0000000000000000000000000010000000000
0000000000000000010000000000000000000
0000000000000001000000000010000000000
0000000000000000000000000001000000000
0000000000000010000000000000100000000
0000000000000000000000000000000000000
0000000000000100000000000000010000000
0000000000000000000000000000000000000
0000000000001000000000000000010000000
0000000000000000000000000000001000000
0000000000010000000000000000000000000
0000000000100000000000000000000100000
0000000000000000000000000000000100000
0000000010000000000000000000000000000
0000000010000000000000000000000010000
0000000000000000000000000000000001000
0000000100000000000000000000000001100
0000000000000000000000000000000000100
0000010000000000000000000000000000010
0000000000000000000000000000000000010
0000100000000000000000000000000000001
0001000000000000000000000000000000001
0000000000000000000000000000000000001
0100000000000000000000000000000000000
1000000000000000000000000000000000000
1000000000000000000000000000000000000
0000000000000000000000000000000000000
0000000000000000000000000000000000000
0000000000000000000000000000000000000

0000000000000011110000000000000000000
0000000000000010001100000000000000000
0000000000000100000100000000000000000
0000000000000100000000000000000000000
0000000000001000000010000000000000000
0000000000010000000000100000000000000
0000000000000000000000100000000000000
0000000000010000000000010000000000000
0000000000100000000000001000000000000
0000000000000000000000000100000000000
0000000000000000000000000100000000000
0000000000000000000000000000000000000
0000000001000000000000000010000000000
0000000010000000000000000001000000000
0000000000000000000000000000100000000
0000000100000000000000000000010000000
0000000000000000000000000000000000000
0000000100000000000000000000000000000
0000000000000000000000000000000100000
0000001000000000000000000000000010000
0000000000000000000000000000000000000
0000010000000000000000000000000010000
0000000000000000000000000000000001000
0000100000000000000000000000000001000
0000000000000000000000000000000000100
0001000000000000000000000000000000010
0000000000000000000000000000000000001
0000000000000000000000000000000000001
0010000000000000000000000000000000001
0000000000000000000000000000000000001
0010000000000000000000000000000000000
0000000000000000000000000000000000000
0000000000000000000000000000000000000
0100000000000000000000000000000000000
0000000000000000000000000000000000000
1000000000000000000000000000000000000
1000000000000000000000000000000000000

0000000000000000100000000000000000000
0000000000000001111000000000000000000
0000000000000011001000000000000000000
0000000000000110000000000000000000000
0000000000000100000100000000000000000
0000000000000000000010000000000000000
0000000000001000000000000000000000000
0000000000000000000001000000000000000
0000000000001000000000000000000000000
0000000000010000000000100000000000000
0000000000100000000000010000000000000
0000000000000000000000001000000000000
0000000000100000000000000000000000000
0000000000000000000000000100000000000
0000000001000000000000000010000000000
0000000000000000000000000000000000000
0000000010000000000000000001000000000
0000000000000000000000000001100000000
0000000100000000000000000000010000000
0000000000000000000000000000010000000
0000001000000000000000000000001000000
0000000000000000000000000000001000000
0000010000000000000000000000000100000
0000000000000000000000000000000100000
0000010000000000000000000000000010000
0000000000000000000000000000000010000
0000100000000000000000000000000011000
0001000000000000000000000000000001000
0000000000000000000000000000000001100
0000000000000000000000000000000000010
0010000000000000000000000000000000010
0000000000000000000000000000000000010
0100000000000000000000000000000000000
0000000000000000000000000000000000000
1000000000000000000000000000000000000
0000000000000000000000000000000000000
1000000000000000000000000000000000000

0000000000000000000011000000000000000
0000000000000000000011000000000000000
0000000000000000000101000000000000000
0000000000000000001000100000000000000
0000000000000000010000100000000000000
0000000000000000100000000000000000000
0000000000000000000000100000000000000
0000000000000000100000100000000000000
0000000000000001000000010000000000000
0000000000000000000000000000000000000
0000000000000010000000001000000000000
0000000000000000000000000000000000000
0000000000000100000000000100000000000
0000000000000000000000000000000000000
0000000000001000000000000010000000000
0000000000000000000000000000000000000
0000000000100000000000000001000000000
0000000000000000000000000000000000000
0000000000100000000000000000100000000
0000000000000000000000000000010000000
0000000000000000000000000000000000000
0000000010000000000000000000001000000
0000000000000000000000000000001000000
0000000000000000000000000000000100000
0000001000000000000000000000000010000
0000000000000000000000000000000010000
0000000000000000000000000000000001000
0000100000000000000000000000000000100
0000000000000000000000000000000000110
0001000000000000000000000000000000001
0000000000000000000000000000000000001
0100000000000000000000000000000000001
0000000000000000000000000000000000000
1000000000000000000000000000000000000
1000000000000000000000000000000000000
0000000000000000000000000000000000000
0000000000000000000000000000000000000

0000000000000000000010000000000000000
0000000000000000000110000000000000000
0000000000000000000100000000000000000
0000000000000000000101000000000000000
0000000000000000001001000000000000000
0000000000000000010000000000000000000
0000000000000000010000100000000000000
0000000000000000100000000000000000000
0000000000000000000000010000000000000
0000000000000001000000000000000000000
0000000000000000000000000000000000000
0000000000000010000000001000000000000
0000000000000010000000000000000000000
0000000000000000000000000000000000000
0000000000000100000000000100000000000
0000000000001000000000000000000000000
0000000000000000000000000010000000000
0000000000010000000000000000000000000
0000000000000000000000000001000000000
0000000000100000000000000000000000000
0000000000000000000000000000100000000
0000000001000000000000000000000000000
0000000000000000000000000000010000000
0000000010000000000000000000010000000
0000000000000000000000000000001000000
0000000100000000000000000000000000000
0000000000000000000000000000000100000
0000010000000000000000000000000010000
0000000000000000000000000000000010000
0001000000000000000000000000000001000
0000000000000000000000000000000000100
0010000000000000000000000000000000100
0000000000000000000000000000000000110
0100000000000000000000000000000000011
0000000000000000000000000000000000001
1000000000000000000000000000000000001
1000000000000000000000000000000000000

0000000000000001100000000000000000000
0000000000000011110000000000000000000
0000000000000010000000000000000000000
0000000000000000001000000000000000000
0000000000000100001000000000000000000
0000000000001000000100000000000000000
0000000000001000000000000000000000000
0000000000010000000010000000000000000
0000000000010000000001000000000000000
0000000000100000000000000000000000000
0000000000100000000001000000000000000
0000000000100000000000000000000000000
0000000001000000000000100000000000000
0000000000000000000000000000000000000
0000000001000000000000010000000000000
0000000000000000000000001000000000000
0000000010000000000000000000000000000
0000000000000000000000001000000000000
0000000010000000000000000100000000000
0000000000000000000000000010000000000
0000000000000000000000000010000000000
0000000100000000000000000001000000000
0000000000000000000000000000000000000
0000000000000000000000000001000000000
0000000100000000000000000000100000000
0000000000000000000000000000110000000
0000000000000000000000000000010000000
0000000100000000000000000000011000000
0000000000000000000000000000001000000
0000000000000000000000000000001000000
0000001000000000000000000000001000000
0000000000000000000000000000001000000
0000000000000000000000000000001000000
0000001000000000000000000000001000000
0000000000000000000000000000000000000
0000000000000000000000000000000000000
0000001000000000000000000000000000000

0000000000000000001000000000000000000
0000000000000000011000000000000000000
0000000000000000010000000000000000000
0000000000000000010100000000000000000
0000000000000000000000000000000000000
0000000000000000100010000000000000000
0000000000000000000000000000000000000
0000000000000000100001000000000000000
0000000000000000000000000000000000000
0000000000000000000000000000000000000
0000000000000000000001000000000000000
0000000000000001000000000000000000000
0000000000000000000000000000000000000
0000000000000000000000100000000000000
0000000000000000000000000000000000000
0000000000000010000000100000000000000
0000000000000000000000000000000000000
0000000000000000000000010000000000000
0000000000000000000000000000000000000
0000000000000000000000010000000000000
0000000000000010000000000000000000000
0000000000000000000000010000000000000
0000000000000000000000010000000000000
0000000000000000000000001000000000000
0000000000000000000000001000000000000
0000000000000100000000001000000000000
0000000000000000000000001000000000000
0000000000000000000000000100000000000
0000000000000000000000000100000000000
0000000000001000000000000010000000000
0000000000000000000000000010000000000
0000000000000000000000000010000000000
0000000000000000000000000000000000000
0000000000010000000000000000000000000
0000000000000000000000000000000000000
0000000000100000000000000000000000000
0000000000100000000000000000000000000

0000000000000000011000000000000000000
0000000000000000011000000000000000000
0000000000000000011000000000000000000
0000000000000000010100000000000000000
0000000000000000100000000000000000000
0000000000000000100010000000000000000
0000000000000000100000000000000000000
0000000000000001000001000000000000000
0000000000000001000000000000000000000
0000000000000001000000000000000000000
0000000000000010000001000000000000000
0000000000000010000000000000000000000
0000000000000010000000100000000000000
0000000000000010000000010000000000000
0000000000000100000000000000000000000
0000000000001000000000010000000000000
0000000000001000000000001000000000000
0000000000000000000000000000000000000
0000000000001000000000000100000000000
0000000000010000000000000100000000000
0000000000010000000000000100000000000
0000000000100000000000000010000000000
0000000000100000000000000010000000000
0000000001000000000000000010000000000
0000000001000000000000000001000000000
0000000010000000000000000001000000000
0000000010000000000000000001000000000
0000000010000000000000000001100000000
0000000010000000000000000000110000000
0000000100000000000000000000010000000
0000000100000000000000000000011000000
0000000000000000000000000000001000000
0000000100000000000000000000000000000
0000000100000000000000000000000000000
0000000000000000000000000000000000000
0000001000000000000000000000000000000
0000001000000000000000000000000000000

0000000000000111100000000000000000000
0000000000000100000000000000000000000
0000000000000100010000000000000000000
0000000000001000001000000000000000000
0000000000000000000000000000000000000
0000000000001000000000000000000000000
0000000000000000000000000000000000000
0000000000010000000010000000000000000
0000000000000000000000000000000000000
0000000000000000000000000000000000000
0000000000000000000000000000000000000
0000000000100000000000000000000000000
0000000000000000000000100000000000000
0000000000000000000000000000000000000
0000000000000000000000000000000000000
0000000001000000000000001000000000000
0000000000000000000000000000000000000
0000000000000000000000000000000000000
0000000000000000000000000100000000000
0000000000000000000000000000000000000
0000000000000000000000000000000000000
0000000000000000000000000010000000000
0000000100000000000000000000000000000
0000000000000000000000000001000000000
0000000000000000000000000000000000000
0000000000000000000000000001000000000
0000010000000000000000000000100000000
0000000000000000000000000000000000000
0000000000000000000000000000010000000
0000000000000000000000000000010000000
0000000000000000000000000000001000000
0001000000000000000000000000000100000
0000000000000000000000000000000000000
0000000000000000000000000000000010000
0010000000000000000000000000000001000
0000000000000000000000000000000001000
0010000000000000000000000000000000000

0000000001000000100000000000000000000
0000000000000000000000000000000000000
0000000001000000000100000000000000000
0000000000000000000000000000000000000
0000000010000000000000000000000000000
0000000000000000000010000000000000000
0000000000000000000000000000000000000
0000000000000000000001000000000000000
0000000010000000000000000000000000000
0000000000000000000000100000000000000
0000000000000000000000000000000000000
0000000000000000000000000000000000000
0000000000000000000000010000000000000
0000000000000000000000000000000000000
0000000100000000000000001000000000000
0000000000000000000000000000000000000
0000000000000000000000000100000000000
0000000000000000000000000000000000000
0000000000000000000000000010000000000
0000001000000000000000000000000000000
0000000000000000000000000010000000000
0000000000000000000000000000000000000
0000000000000000000000000001000000000
0000000000000000000000000001000000000
0000000000000000000000000000100000000
0000000000000000000000000000100000000
0000001000000000000000000000100000000
0000000000000000000000000000100000000
0000000000000000000000000000010000000
0000000000000000000000000000010000000
0000000000000000000000000000010000000
0000001000000000000000000000010000000
0000000000000000000000000000010000000
0000000000000000000000000000010000000
0000001000000000000000000000010000000
0000000000000000000000000000000000000
0000001000000000000000000000000000000

0000000000011011000000000000000000000
0000000000100000100000000000000000000
0000000000100000010000000000000000000
0000000000000000000000000000000000000
0000000001000000000100000000000000000
0000000000000000000000000000000000000
0000000001000000000000000000000000000
0000000000000000000001000000000000000
0000000000000000000000000000000000000
0000000010000000000000000000000000000
0000000000000000000000010000000000000
0000000000000000000000000000000000000
0000000000000000000000000000000000000
0000000100000000000000001000000000000
0000000000000000000000000000000000000
0000000000000000000000000000000000000
0000000000000000000000000100000000000
0000000000000000000000000000000000000
0000001000000000000000000010000000000
0000000000000000000000000000000000000
0000000000000000000000000001000000000
0000000000000000000000000000000000000
0000000000000000000000000001000000000
0000010000000000000000000000000000000
0000000000000000000000000000100000000
0000000000000000000000000000000000000
0000000000000000000000000000010000000
0000000000000000000000000000000000000
0000100000000000000000000000010000000
0000000000000000000000000000010000000
0000000000000000000000000000001000000
0000000000000000000000000000001000000
0000100000000000000000000000001000000
0000000000000000000000000000001100000
0000000000000000000000000000000100000
0000100000000000000000000000000000000
0000100000000000000000000000000000000

0000000000000000110000000000000000000
0000000000000000101000000000000000000
0000000000000000001000000000000000000
0000000000000001000000000000000000000
0000000000000000000010000000000000000
0000000000000010000000000000000000000
0000000000000000000000000000000000000
0000000000000000000001000000000000000
0000000000000000000000000000000000000
0000000000001000000000000000000000000
0000000000000000000000000000000000000
0000000000000000000000100000000000000
0000000000000000000000000000000000000
0000000000010000000000000000000000000
0000000000000000000000010000000000000
0000000000000000000000000000000000000
0000000000000000000000000000000000000
0000000000000000000000000100000000000
0000000000000000000000000000000000000
0000000000000000000000000000000000000
0000000010000000000000000100000000000
0000000000000000000000000000000000000
0000000000000000000000000010000000000
0000000000000000000000000000000000000
0000001000000000000000000001000000000
0000000000000000000000000000000000000
0000000000000000000000000000100000000
0000000000000000000000000000100000000
0000100000000000000000000000000000000
0000000000000000000000000000010000000
0000000000000000000000000000010000000
0001000000000000000000000000001000000
0000000000000000000000000000000100000
0000000000000000000000000000000100000
0010000000000000000000000000000011000
0010000000000000000000000000000000100
0000000000000000000000000000000000100

0000000000011100000000000000000000000
0000000000110010000000000000000000000
0000000000100000000000000000000000000
0000000000100001000000000000000000000
0000000000000000000000000000000000000
0000000001000000000000000000000000000
0000000000000000000000000000000000000
0000000000000000001000000000000000000
0000000001000000000000000000000000000
0000000000000000000000000000000000000
0000000000000000000000000000000000000
0000000010000000000000000000000000000
0000000000000000000010000000000000000
0000000000000000000000000000000000000
0000000000000000000000000000000000000
0000000100000000000000000000000000000
0000000000000000000000000000000000000
0000000000000000000000000000000000000
0000001000000000000000010000000000000
0000000000000000000000000000000000000
0000000000000000000000000000000000000
0000010000000000000000000000000000000
0000000000000000000000000000000000000
0000000000000000000000000100000000000
0000000000000000000000000000000000000
0000100000000000000000000000000000000
0000000000000000000000000000000000000
0000100000000000000000000001000000000
0000000000000000000000000000000000000
0000000000000000000000000000000000000
0000000000000000000000000000000000000
0000000000000000000000000000010000000
0000000000000000000000000000000000000
0000000000000000000000000000000000000
0000000000000000000000000000000100000
0000000000000000000000000000000000000
0000000000000000000000000000000010000

0000000000000011110000000000000000000
0000000000000100000000000000000000000
0000000000000100001000000000000000000
0000000000001000000000000000000000000
0000000000000000000010000000000000000
0000000000001000000000000000000000000
0000000000000000000000000000000000000
0000000000000000000000100000000000000
0000000000010000000000000000000000000
0000000000000000000000000000000000000
0000000000000000000000000000000000000
0000000000000000000000000000000000000
0000000000100000000000001000000000000
0000000000000000000000000000000000000
0000000000000000000000000000000000000
0000000001000000000000000000000000000
0000000000000000000000000100000000000
0000000000000000000000000000000000000
0000000000000000000000000010000000000
0000000100000000000000000000000000000
0000000000000000000000000000000000000
0000000000000000000000000001000000000
0000000000000000000000000000000000000
0000000000000000000000000000000000000
0000001000000000000000000000100000000
0000000000000000000000000000000000000
0000000000000000000000000000010000000
0000000000000000000000000000000000000
0000010000000000000000000000000000000
0000000000000000000000000000010000000
0000000000000000000000000000001000000
0000100000000000000000000000000000000
0000000000000000000000000000001000000
0000000000000000000000000000000100000
0001000000000000000000000000000010000
0000000000000000000000000000000010000
0000000000000000000000000000000001000

0000000000000000011111010000000000000
0000000000000000010000000000000000000
0000000000000000010000001000000000000
0000000000000000100000000000000000000
0000000000000001000000000000000000000
0000000000000000000000000010000000000
0000000000000000000000000000000000000
0000000000000010000000000000000000000
0000000000000000000000000000100000000
0000000000000000000000000000000000000
0000000000000100000000000000000000000
0000000000000000000000000000000000000
0000000000000000000000000000010000000
0000000000000000000000000000000000000
0000000000000000000000000000000000000
0000000000000000000000000000001000000
0000000000100000000000000000000000000
0000000000000000000000000000000000000
0000000000000000000000000000000000000
0000000000000000000000000000000100000
0000000001000000000000000000000000000
0000000000000000000000000000000010000
0000000000000000000000000000000000000
0000000000000000000000000000000010000
0000000000000000000000000000000000000
0000000100000000000000000000000000000
0000000000000000000000000000000010000
0000000000000000000000000000000000000
0000000000000000000000000000000001000
0000000000000000000000000000000001000
0000010000000000000000000000000001000
0000000000000000000000000000000001000
0000100000000000000000000000000001000
0000000000000000000000000000000001000
0001000000000000000000000000000000000
0000000000000000000000000000000000000
0001000000000000000000000000000000000

0000000000000011110000000000000000000
0000000000000100001000000000000000000
0000000000000100000010000000000000000
0000000000000000000000000000000000000
0000000000001000000001000000000000000
0000000000000000000000000000000000000
0000000000010000000000000000000000000
0000000000000000000000010000000000000
0000000000000000000000000000000000000
0000000000000000000000000000000000000
0000000001000000000000000100000000000
0000000000000000000000000000000000000
0000000000000000000000000000000000000
0000000000000000000000000010000000000
0000000000000000000000000000000000000
0000000000000000000000000000000000000
0000000000000000000000000000000000000
0000000100000000000000000001000000000
0000000000000000000000000000000000000
0000000000000000000000000000000000000
0000000000000000000000000000100000000
0000000000000000000000000000000000000
0000001000000000000000000000010000000
0000000000000000000000000000000000000
0000000000000000000000000000000000000
0000000000000000000000000000001000000
0000100000000000000000000000000000000
0000000000000000000000000000001000000
0000000000000000000000000000000000000
0000000000000000000000000000001000000
0001000000000000000000000000000100000
0000000000000000000000000000000100000
0001000000000000000000000000000000000
0000000000000000000000000000000010000
0000000000000000000000000000000010000
0001000000000000000000000000000010000
0001000000000000000000000000000010000

0000000000001111110000000000000000000
0000000000001000001000000000000000000
0000000000010000000010000000000000000
0000000000000000000001000000000000000
0000000000100000000000000000000000000
0000000000000000000000000000000000000
0000000001000000000000010000000000000
0000000000000000000000000000000000000
0000000100000000000000001000000000000
0000000000000000000000000000000000000
0000000000000000000000000000000000000
0000001000000000000000000010000000000
0000000000000000000000000000000000000
0000000000000000000000000000000000000
0000000000000000000000000001000000000
0000000000000000000000000000000000000
0000100000000000000000000000100000000
0000000000000000000000000000000000000
0000000000000000000000000000000000000
0000000000000000000000000000010000000
0000000000000000000000000000000000000
0000000000000000000000000000000000000
0010000000000000000000000000001000000
0000000000000000000000000000000000000
0000000000000000000000000000000100000
0000000000000000000000000000000000000
0100000000000000000000000000000010000
0000000000000000000000000000000000000
0000000000000000000000000000000010000
1000000000000000000000000000000000000
0000000000000000000000000000000001000
0000000000000000000000000000000000100
0000000000000000000000000000000000000
1000000000000000000000000000000000010
0000000000000000000000000000000000001
0000000000000000000000000000000000001
0000000000000000000000000000000000000

0000000000000000001100000000000000000
0000000000000000010010000000000000000
0000000000000000010000000000000000000
0000000000000000010001000000000000000
0000000000000000000000000000000000000
0000000000000000100000100000000000000
0000000000000000000000000000000000000
0000000000000000100000000000000000000
0000000000000000000000000000000000000
0000000000000001000000010000000000000
0000000000000000000000000000000000000
0000000000000000000000000000000000000
0000000000000010000000001000000000000
0000000000000000000000000000000000000
0000000000000000000000000000000000000
0000000000000100000000001000000000000
0000000000000000000000000000000000000
0000000000000000000000000100000000000
0000000000000000000000000000000000000
0000000000000000000000000000000000000
0000000000010000000000000010000000000
0000000000000000000000000000000000000
0000000000000000000000000010000000000
0000000000100000000000000001000000000
0000000000000000000000000000000000000
0000000000000000000000000001000000000
0000000000000000000000000001100000000
0000000001000000000000000000100000000
0000000000000000000000000000100000000
0000000000000000000000000000000000000
0000000000000000000000000000000000000
0000000000000000000000000000000000000
0000000010000000000000000000000000000
0000000000000000000000000000000000000
0000000100000000000000000000000000000
0000000000000000000000000000000000000
0000000100000000000000000000000000000

0000000000000111100000000000000000000
0000000000000100100000000000000000000
0000000000000100001000000000000000000
0000000000000000000000000000000000000
0000000000001000001000000000000000000
0000000000001000000000000000000000000
0000000000000000000100000000000000000
0000000000000000000000000000000000000
0000000000010000000001000000000000000
0000000000000000000000000000000000000
0000000000000000000000000000000000000
0000000000100000000000100000000000000
0000000000000000000000000000000000000
0000000000000000000000000000000000000
0000000001000000000000010000000000000
0000000000000000000000000000000000000
0000000000000000000000001000000000000
0000000000000000000000000000000000000
0000000010000000000000000000000000000
0000000000000000000000000100000000000
0000000000000000000000000000000000000
0000000000000000000000000000000000000
0000001000000000000000000010000000000
0000000000000000000000000000000000000
0000000000000000000000000001000000000
0000010000000000000000000000000000000
0000000000000000000000000000000000000
0000000000000000000000000000100000000
0000000000000000000000000000000000000
0000010000000000000000000000010000000
0000000000000000000000000000000000000
0000000000000000000000000000010000000
0000100000000000000000000000000000000
0000000000000000000000000000000100000
0000100000000000000000000000000000000
0000000000000000000000000000000110000
0000000000000000000000000000000010000

0000000000000111100000000000000000000
0000000000000100010000000000000000000
0000000000000100000000000000000000000
0000000000000000001000000000000000000
0000000000001000000000000000000000000
0000000000010000000000000000000000000
0000000000000000000010000000000000000
0000000000000000000000000000000000000
0000000000100000000000000000000000000
0000000000000000000001000000000000000
0000000000000000000000000000000000000
0000000000000000000000000000000000000
0000000001000000000000100000000000000
0000000000000000000000000000000000000
0000000000000000000000000000000000000
0000000000000000000000010000000000000
0000000000000000000000000000000000000
0000000010000000000000000000000000000
0000000000000000000000000000000000000
0000000000000000000000001000000000000
0000000100000000000000000000000000000
0000000000000000000000000100000000000
0000000000000000000000000000000000000
0000000000000000000000000010000000000
0000001000000000000000000000000000000
0000000000000000000000000001000000000
0000000000000000000000000000000000000
0000000000000000000000000001000000000
0000010000000000000000000000000000000
0000000000000000000000000000100000000
0000000000000000000000000000000000000
0000000000000000000000000000100000000
0000100000000000000000000000010000000
0000000000000000000000000000010000000
0000100000000000000000000000001000000
0000000000000000000000000000001000000
0000100000000000000000000000000000000

0000000000000001110000000000000000000
0000000000000010010000000000000000000
0000000000000100000000000000000000000
0000000000000000001000000000000000000
0000000000000100000000000000000000000
0000000000000000000010000000000000000
0000000000000000000000000000000000000
0000000000000000000000000000000000000
0000000000010000000000000000000000000
0000000000000000000000000000000000000
0000000000000000000000100000000000000
0000000000000000000000000000000000000
0000000000100000000000000000000000000
0000000000000000000000000000000000000
0000000000000000000000010000000000000
0000000000000000000000000000000000000
0000000010000000000000000000000000000
0000000000000000000000000000000000000
0000000000000000000000000100000000000
0000000000000000000000000000000000000
0000000000000000000000000000000000000
0000000000000000000000000010000000000
0000001000000000000000000000000000000
0000000000000000000000000000000000000
0000000000000000000000000001000000000
0000000000000000000000000000000000000
0000010000000000000000000000100000000
0000000000000000000000000000000000000
0000000000000000000000000000010000000
0000100000000000000000000000000000000
0000000000000000000000000000010000000
0000000000000000000000000000001000000
0001000000000000000000000000000100000
0001000000000000000000000000000000000
0000000000000000000000000000000100000
0000000000000000000000000000000100000
0000000000000000000000000000000010000

0000000000000000000111100000000000000
0000000000000000001000100000000000000
0000000000000000000000001000000000000
0000000000000000010000000000000000000
0000000000000000000000000000000000000
0000000000000000100000000100000000000
0000000000000000000000000000000000000
0000000000000001000000000010000000000
0000000000000000000000000000000000000
0000000000000000000000000000000000000
0000000000000010000000000001000000000
0000000000000000000000000000000000000
0000000000000000000000000000000000000
0000000000000000000000000000000000000
0000000000000000000000000000010000000
0000000000001000000000000000000000000
0000000000000000000000000000000000000
0000000000000000000000000000010000000
0000000000000000000000000000000000000
0000000000100000000000000000000000000
0000000000000000000000000000001000000
0000000000000000000000000000000000000
0000000000000000000000000000001000000
0000000010000000000000000000000000000
0000000000000000000000000000000000000
0000000000000000000000000000000100000
0000000000000000000000000000000000000
0000000000000000000000000000000010000
0000001000000000000000000000000010000
0000000000000000000000000000000000000
0000000000000000000000000000000010000
0000000000000000000000000000000011000
0000010000000000000000000000000001000
0000000000000000000000000000000000000
0001000000000000000000000000000000000
0000000000000000000000000000000000000
0001000000000000000000000000000000000

0000000000000111010000000000000000000
0000000000001000001000000000000000000
0000000000010000000100000000000000000
0000000000010000000001000000000000000
0000000000100000000000000000000000000
0000000000000000000000100000000000000
0000000001000000000000000000000000000
0000000000000000000000000000000000000
0000000001000000000000001000000000000
0000000010000000000000000000000000000
0000000000000000000000000000000000000
0000000000000000000000000100000000000
0000000100000000000000000000000000000
0000000000000000000000000010000000000
0000000000000000000000000000000000000
0000001000000000000000000000000000000
0000000000000000000000000000100000000
0000000000000000000000000000000000000
0000000000000000000000000000000000000
0000010000000000000000000000100000000
0000000000000000000000000000000000000
0000000000000000000000000000010000000
0000000000000000000000000000000000000
0000100000000000000000000000000000000
0000000000000000000000000000001000000
0000000000000000000000000000000100000
0001000000000000000000000000000000000
0000000000000000000000000000000000000
0000000000000000000000000000000010000
0000000000000000000000000000000000000
0000000000000000000000000000000001000
0100000000000000000000000000000001000
0000000000000000000000000000000000100
0000000000000000000000000000000000100
1000000000000000000000000000000000010
0000000000000000000000000000000000000
1000000000000000000000000000000000000

0000000001011010000000000000000000000
0000000110000000100000000000000000000
0000000100000000010000000000000000000
0000000100000000000000000000000000000
0000001000000000000100000000000000000
0000001000000000000000000000000000000
0000000000000000000000000000000000000
0000010000000000000000000000000000000
0000000000000000000000000000000000000
0000010000000000000000100000000000000
0000000000000000000000000000000000000
0000000000000000000000000000000000000
0000100000000000000000000000000000000
0000000000000000000000000100000000000
0000000000000000000000000000000000000
0000100000000000000000000000000000000
0000000000000000000000000000000000000
0000000000000000000000000000000000000
0001000000000000000000000001000000000
0000000000000000000000000000000000000
0000000000000000000000000000000000000
0001000000000000000000000000000000000
0000000000000000000000000000010000000
0000000000000000000000000000000000000
0010000000000000000000000000000000000
0000000000000000000000000000001000000
0000000000000000000000000000000000000
0000000000000000000000000000000100000
0010000000000000000000000000000000000
0000000000000000000000000000000010000
0000000000000000000000000000000000000
0100000000000000000000000000000010000
0000000000000000000000000000000001000
0100000000000000000000000000000001000
0000000000000000000000000000000001000
0100000000000000000000000000000001100
0000000000000000000000000000000000100

0000000000000000000111100000000000000
0000000000000000001100010000000000000
0000000000000000010000001000000000000
0000000000000000100000000000000000000
0000000000000000000000001000000000000
0000000000000001000000000000000000000
0000000000000000000000000000000000000
0000000000000010000000000100000000000
0000000000000000000000000000000000000
0000000000000000000000000000000000000
0000000000000100000000000000000000000
0000000000000000000000000010000000000
0000000000000000000000000000000000000
0000000000010000000000000000000000000
0000000000000000000000000001000000000
0000000000000000000000000000000000000
0000000000000000000000000000000000000
0000000000100000000000000001000000000
0000000000000000000000000000000000000
0000000000000000000000000000000000000
0000000000000000000000000000000000000
0000000001000000000000000001000000000
0000000000000000000000000000000000000
0000000000000000000000000000000000000
0000000010000000000000000000100000000
0000000000000000000000000000000000000
0000000000000000000000000000000000000
0000000000000000000000000000010000000
0000000100000000000000000000000000000
0000000000000000000000000000010000000
0000000000000000000000000000000000000
0000001000000000000000000000001000000
0000000000000000000000000000000000000
0000010000000000000000000000001000000
0000000000000000000000000000001000000
0000000000000000000000000000000100000
0000010000000000000000000000000100000

0000000000001111000000000000000000000
0000000000010000100000000000000000000
0000000000100000010000000000000000000
0000000000100000001000000000000000000
0000000000100000000000000000000000000
0000000000000000000000000000000000000
0000000001000000000010000000000000000
0000000000000000000000000000000000000
0000000010000000000000000000000000000
0000000000000000000000100000000000000
0000000000000000000000000000000000000
0000000100000000000000000000000000000
0000000000000000000000000000000000000
0000000000000000000000010000000000000
0000000100000000000000000000000000000
0000000000000000000000000000000000000
0000000000000000000000000000000000000
0000000000000000000000000100000000000
0000000000000000000000000000000000000
0000001000000000000000000000000000000
0000000000000000000000000000000000000
0000000000000000000000000000000000000
0000000000000000000000000010000000000
0000010000000000000000000000000000000
0000000000000000000000000000000000000
0000000000000000000000000001000000000
0000100000000000000000000000000000000
0000000000000000000000000000000000000
0000000000000000000000000000100000000
0000000000000000000000000000000000000
0000100000000000000000000000010000000
0000000000000000000000000000000000000
0000000000000000000000000000010000000
0000100000000000000000000000000000000
0000000000000000000000000000001000000
0000100000000000000000000000001000000
0000000000000000000000000000000100000

0000000000000111000000000000000000000
0000000000000100100000000000000000000
0000000000001000100000000000000000000
0000000000000000010000000000000000000
0000000000010000000000000000000000000
0000000000000000000000000000000000000
0000000000010000001000000000000000000
0000000000000000000000000000000000000
0000000000000000000000000000000000000
0000000000000000000000000000000000000
0000000001000000000100000000000000000
0000000000000000000000000000000000000
0000000000000000000000000000000000000
0000000000000000000000000000000000000
0000000010000000000000000000000000000
0000000000000000000001000000000000000
0000000000000000000000000000000000000
0000000000000000000000000000000000000
0000000000000000000000000000000000000
0000000100000000000000000000000000000
0000000000000000000000000000000000000
0000000000000000000000100000000000000
0000000000000000000000000000000000000
0000000000000000000000000000000000000
0000001000000000000000000000000000000
0000000000000000000000001000000000000
0000000000000000000000000000000000000
0000000000000000000000000000000000000
0000001000000000000000000000000000000
0000000000000000000000000000000000000
0000001000000000000000000010000000000
0000001000000000000000000000000000000
0000000000000000000000000000000000000
0000000000000000000000000001000000000
0000000000000000000000000000000000000
0000000000000000000000000000100000000
0000000000000000000000000000110000000

0000000000000011110000000000000000000
0000000000000100000100000000000000000
0000000000000100000000000000000000000
0000000000001000000010000000000000000
0000000000000000000000000000000000000
0000000000000000000000010000000000000
0000000000010000000000000000000000000
0000000000000000000000000000000000000
0000000000100000000000000100000000000
0000000000000000000000000000000000000
0000000000000000000000000000000000000
0000000000000000000000000000000000000
0000000001000000000000000001000000000
0000000000000000000000000000000000000
0000000000000000000000000000000000000
0000000000000000000000000000100000000
0000000010000000000000000000000000000
0000000000000000000000000000010000000
0000000000000000000000000000000000000
0000000000000000000000000000000000000
0000000000000000000000000000001000000
0000000000000000000000000000000000000
0000010000000000000000000000000100000
0000000000000000000000000000000000000
0000000000000000000000000000000000000
0000000000000000000000000000000010000
0000100000000000000000000000000000000
0000000000000000000000000000000010000
0000000000000000000000000000000001000
0000000000000000000000000000000000000
0001000000000000000000000000000001000
0000000000000000000000000000000000100
0000000000000000000000000000000000000
0000000000000000000000000000000000100
0100000000000000000000000000000000010
0000000000000000000000000000000000000
0100000000000000000000000000000000000

0000000000000011000000000000000000000
0000000000000010100000000000000000000
0000000000000000000000000000000000000
0000000000000010010000000000000000000
0000000000000000000000000000000000000
0000000000000100000100000000000000000
0000000000000000000000000000000000000
0000000000000000000001000000000000000
0000000000000000000000000000000000000
0000000000000100000000000000000000000
0000000000000000000000000000000000000
0000000000000000000000100000000000000
0000000000000000000000000000000000000
0000000000001000000000001000000000000
0000000000000000000000000000000000000
0000000000000000000000001000000000000
0000000000000000000000000000000000000
0000000000000000000000000000000000000
0000000000000000000000000010000000000
0000000000010000000000000000000000000
0000000000000000000000000010000000000
0000000000000000000000000000000000000
0000000000000000000000000001000000000
0000000000000000000000000001000000000
0000000000000000000000000000000000000
0000000001000000000000000000100000000
0000000000000000000000000000100000000
0000000000000000000000000000010000000
0000000000000000000000000000010000000
0000000000000000000000000000010000000
0000000010000000000000000000010000000
0000000000000000000000000000010000000
0000000000000000000000000000000000000
0000000100000000000000000000000000000
0000000000000000000000000000000000000
0000000000000000000000000000000000000
0000001000000000000000000000000000000

0000000001110000000000000000000000000
0000000001001000000000000000000000000
0000000001000100000000000000000000000
0000000001000000000000000000000000000
0000000000000010000000000000000000000
0000000010000000000000000000000000000
0000000000000000000000000000000000000
0000000000000000010000000000000000000
0000000010000000000000000000000000000
0000000000000000000000000000000000000
0000000000000000000000000000000000000
0000000000000000000000000000000000000
0000000100000000001000000000000000000
0000000000000000000000000000000000000
0000000000000000000000000000000000000
0000000000000000000010000000000000000
0000000100000000000000000000000000000
0000000000000000000001000000000000000
0000000000000000000000000000000000000
0000000000000000000000100000000000000
0000000100000000000000000000000000000
0000000000000000000000000000000000000
0000000000000000000000010000000000000
0000000000000000000000001000000000000
0000000000000000000000000000000000000
0000000100000000000000001000000000000
0000000000000000000000000100000000000
0000000100000000000000000000000000000
0000000000000000000000000100000000000
0000000000000000000000000100000000000
0000000100000000000000000010000000000
0000000000000000000000000010000000000
0000000000000000000000000001000000000
0000000000000000000000000001000000000
0000000000000000000000000001100000000
0000000000000000000000000000100000000
0000000000000000000000000000100000000

0000000001111000000000000000000000000
0000000011000100000000000000000000000
0000000010000000000000000000000000000
0000000000000010000000000000000000000
0000000010000000000000000000000000000
0000000100000000100000000000000000000
0000000000000000000000000000000000000
0000000000000000000000000000000000000
0000000100000000000000000000000000000
0000000000000000000000000000000000000
0000000000000000000000000000000000000
0000000000000000001000000000000000000
0000001000000000000000000000000000000
0000000000000000000000000000000000000
0000000000000000000000000000000000000
0000000000000000000000000000000000000
0000001000000000000001000000000000000
0000000000000000000000000000000000000
0000000000000000000000000000000000000
0000000000000000000000000000000000000
0000000000000000000000000000000000000
0000000000000000000000010000000000000
0000010000000000000000000000000000000
0000000000000000000000000000000000000
0000000000000000000000000000000000000
0000000000000000000000000100000000000
0000000000000000000000000000000000000
0000100000000000000000000000000000000
0000000000000000000000000000000000000
0000000000000000000000000001000000000
0000100000000000000000000000000000000
0000000000000000000000000000100000000
0000000000000000000000000000000000000
0000100000000000000000000000010000000
0000000000000000000000000000001000000
0000000000000000000000000000001000000
0000000000000000000000000000000100000

0000000000000110000000000000000000000
0000000000001001000000000000000000000
0000000000001000100000000000000000000
0000000000000000000000000000000000000
0000000000001000000000000000000000000
0000000000000000001000000000000000000
0000000000010000000000000000000000000
0000000000000000000000000000000000000
0000000000000000000000000000000000000
0000000000010000000100000000000000000
0000000000000000000000000000000000000
0000000000000000000000000000000000000
0000000000000000000000000000000000000
0000000000100000000001000000000000000
0000000000000000000000000000000000000
0000000000000000000000000000000000000
0000000000000000000000000000000000000
0000000001000000000000010000000000000
0000000000000000000000000000000000000
0000000000000000000000000000000000000
0000000010000000000000000000000000000
0000000000000000000000001000000000000
0000000000000000000000000000000000000
0000000000000000000000000000000000000
0000001000000000000000000100000000000
0000000000000000000000000000000000000
0000000000000000000000000010000000000
0000000000000000000000000000000000000
0000010000000000000000000000000000000
0000000000000000000000000001000000000
0000010000000000000000000000000000000
0000000000000000000000000000100000000
0000000000000000000000000000100000000
0000000000000000000000000000000000000
0000000000000000000000000000010000000
0000000000000000000000000000010000000
0000000000000000000000000000001000000

0000000000011111000000000000000000000
0000000000010000000000000000000000000
0000000000100000100000000000000000000
0000000000000000000000000000000000000
0000000000100000001000000000000000000
0000000000000000000000000000000000000
0000000001000000000000000000000000000
0000000000000000000000000000000000000
0000000000000000000010000000000000000
0000000001000000000000000000000000000
0000000000000000000000000000000000000
0000000000000000000000000000000000000
0000000000000000000000100000000000000
0000000010000000000000000000000000000
0000000000000000000000000000000000000
0000000000000000000000000000000000000
0000000000000000000000001000000000000
0000000000000000000000000000000000000
0000001000000000000000000000000000000
0000000000000000000000000000000000000
0000000000000000000000000100000000000
0000000000000000000000000000000000000
0000010000000000000000000000000000000
0000000000000000000000000001000000000
0000000000000000000000000000000000000
0000000000000000000000000001000000000
0000100000000000000000000000000000000
0000000000000000000000000000100000000
0000000000000000000000000000000000000
0000000000000000000000000000010000000
0001000000000000000000000000000000000
0000000000000000000000000000001000000
0000000000000000000000000000000000000
0001000000000000000000000000001000000
0000000000000000000000000000000100000
0000000000000000000000000000000000000
0000000000000000000000000000000010000

0000000000001110110000000000000000000
0000000000001000001000000000000000000
0000000000001000000100000000000000000
0000000000010000000000000000000000000
0000000000010000000001000000000000000
0000000000000000000000000000000000000
0000000000100000000000000000000000000
0000000000000000000000010000000000000
0000000000100000000000000000000000000
0000000000000000000000000000000000000
0000000000000000000000000000000000000
0000000001000000000000000100000000000
0000000000000000000000000000000000000
0000000010000000000000000000000000000
0000000000000000000000000000000000000
0000000000000000000000000010000000000
0000000000000000000000000000000000000
0000000100000000000000000000000000000
0000000000000000000000000001000000000
0000000000000000000000000000000000000
0000000000000000000000000000000000000
0000010000000000000000000000000000000
0000000000000000000000000000100000000
0000000000000000000000000000000000000
0000000000000000000000000000000000000
0000010000000000000000000000000000000
0000000000000000000000000000010000000
0000000000000000000000000000000000000
0000000000000000000000000000001000000
0000100000000000000000000000000000000
0000000000000000000000000000001000000
0000000000000000000000000000000000000
0001000000000000000000000000000100000
0000000000000000000000000000000000000
0000000000000000000000000000000100000
0001000000000000000000000000000010000
0000000000000000000000000000000010000

0000000000111010000000000000000000000
0000000001100000100000000000000000000
0000000001000000001000000000000000000
0000000010000000000000000000000000000
0000000000000000000010000000000000000
0000000100000000000000000000000000000
0000000100000000000000010000000000000
0000000000000000000000000000000000000
0000001000000000000000000100000000000
0000000000000000000000000000000000000
0000001000000000000000000000000000000
0000000000000000000000000010000000000
0000000000000000000000000000000000000
0000001000000000000000000000000000000
0000000000000000000000000000100000000
0000010000000000000000000000000000000
0000000000000000000000000000010000000
0000000000000000000000000000000000000
0000010000000000000000000000010000000
0000000000000000000000000000000000000
0000000000000000000000000000001000000
0000010000000000000000000000001000000
0000000000000000000000000000001000000
0000010000000000000000000000001000000
0000000000000000000000000000001000000
0000000000000000000000000000001000000
0000010000000000000000000000001000000
0000000000000000000000000000000000000
0000010000000000000000000000000000000
0000000000000000000000000000000000000
0000010000000000000000000000000000000
0000000000000000000000000000000000000
0000010000000000000000000000000000000
0000000000000000000000000000000000000
0000010000000000000000000000000000000
0000000000000000000000000000000000000
0000010000000000000000000000000000000

0000000000000011110000000000000000000
0000000000000010001000000000000000000
0000000000000000000000000000000000000
0000000000000100000100000000000000000
0000000000000000000000000000000000000
0000000000001000000000000000000000000
0000000000000000000001000000000000000
0000000000001000000000000000000000000
0000000000000000000000000000000000000
0000000000000000000000010000000000000
0000000000000000000000000000000000000
0000000000010000000000000000000000000
0000000000000000000000000000000000000
0000000000000000000000001000000000000
0000000000000000000000000000000000000
0000000000000000000000000000000000000
0000000001000000000000000000000000000
0000000000000000000000000000000000000
0000000000000000000000000010000000000
0000000000000000000000000000000000000
0000000000000000000000000000000000000
0000000010000000000000000000000000000
0000000000000000000000000001000000000
0000000000000000000000000000000000000
0000000100000000000000000000100000000
0000000000000000000000000000000000000
0000000000000000000000000000100000000
0000000000000000000000000000000000000
0000000000000000000000000000010000000
0000001000000000000000000000000000000
0000000000000000000000000000010000000
0000000000000000000000000000010000000
0000010000000000000000000000010000000
0000000000000000000000000000010000000
0000010000000000000000000000000000000
0000000000000000000000000000000000000
0000010000000000000000000000000000000

0000000000000011110000000000000000000
0000000000000100000000000000000000000
0000000000000100001000000000000000000
0000000000000000000000000000000000000
0000000000001000000001000000000000000
0000000000000000000000000000000000000
0000000000010000000000000000000000000
0000000000000000000000000000000000000
0000000000000000000000010000000000000
0000000000100000000000000000000000000
0000000000000000000000000000000000000
0000000000000000000000000000000000000
0000000001000000000000000000000000000
0000000000000000000000000000000000000
0000000000000000000000000100000000000
0000000000000000000000000000000000000
0000000010000000000000000000000000000
0000000000000000000000000000000000000
0000000000000000000000000000000000000
0000000000000000000000000001000000000
0000000100000000000000000000000000000
0000000000000000000000000000000000000
0000000000000000000000000000100000000
0000000000000000000000000000000000000
0000000000000000000000000000000000000
0000010000000000000000000000001000000
0000000000000000000000000000000000000
0000000000000000000000000000001000000
0000000000000000000000000000000000000
0000000000000000000000000000000000000
0000100000000000000000000000000100000
0000000000000000000000000000000000000
0000000000000000000000000000000010000
0001000000000000000000000000000001000
0000000000000000000000000000000001000
0010000000000000000000000000000001000
0000000000000000000000000000000001000

0000000000000101011000000000000000000
0000000000001000000000000000000000000
0000000000010000000100000000000000000
0000000000010000000000000000000000000
0000000000000000000010000000000000000
0000000001000000000000000000000000000
0000000000000000000000100000000000000
0000000010000000000000000000000000000
0000000000000000000000000000000000000
0000000000000000000000010000000000000
0000000100000000000000000000000000000
0000000000000000000000000000000000000
0000000000000000000000000000000000000
0000001000000000000000000000000000000
0000000000000000000000000100000000000
0000000000000000000000000000000000000
0000100000000000000000000000000000000
0000000000000000000000000000000000000
0000000000000000000000000001000000000
0001000000000000000000000000000000000
0000000000000000000000000000000000000
0000000000000000000000000000100000000
0001000000000000000000000000000000000
0000000000000000000000000000000000000
0000000000000000000000000000010000000
0010000000000000000000000000000000000
0000000000000000000000000000000000000
0010000000000000000000000000010000000
0000000000000000000000000000000000000
0000000000000000000000000000000000000
0000000000000000000000000000001000000
0000000000000000000000000000000000000
0000000000000000000000000000000100000
0000000000000000000000000000000000000
0000000000000000000000000000000100000
0000000000000000000000000000000010000
0000000000000000000000000000000010000

0000000000000111000000000000000000000
0000000000001000100000000000000000000
0000000000000000000000000000000000000
0000000000010000000000000000000000000
0000000000000000001000000000000000000
0000000000010000000000000000000000000
0000000000000000000000000000000000000
0000000000000000000000000000000000000
0000000000100000000010000000000000000
0000000000000000000000000000000000000
0000000000000000000000000000000000000
0000000000000000000000000000000000000
0000000000000000000000000000000000000
0000000000000000000000100000000000000
0000000001000000000000000000000000000
0000000000000000000000000000000000000
0000000000000000000000000000000000000
0000000000000000000000000000000000000
0000000000000000000000001000000000000
0000000100000000000000000000000000000
0000000000000000000000000000000000000
0000000000000000000000000100000000000
0000000000000000000000000000000000000
0000000000000000000000000100000000000
0000001000000000000000000000000000000
0000000000000000000000000000000000000
0000000000000000000000000001000000000
0000000000000000000000000000000000000
0000000000000000000000000001000000000
0000010000000000000000000000000000000
0000000000000000000000000000100000000
0000000000000000000000000000010000000
0000100000000000000000000000000000000
0000100000000000000000000000001000000
0000000000000000000000000000001000000
0000000000000000000000000000000100000
0000000000000000000000000000000100000

0000000000000001110000000000000000000
0000000000000001001000000000000000000
0000000000000001000100000000000000000
0000000000000000000000000000000000000
0000000000000010000000000000000000000
0000000000000100000010000000000000000
0000000000000000000000000000000000000
0000000000000000000000000000000000000
0000000000001000000000000000000000000
0000000000000000000001000000000000000
0000000000000000000000000000000000000
0000000000000000000000000000000000000
0000000000010000000000000000000000000
0000000000000000000000010000000000000
0000000000000000000000000000000000000
0000000000000000000000000000000000000
0000000001000000000000000000000000000
0000000000000000000000000000000000000
0000000000000000000000001000000000000
0000000010000000000000000000000000000
0000000000000000000000000000000000000
0000000000000000000000000000000000000
0000000000000000000000000100000000000
0000000000000000000000000000000000000
0000000100000000000000000000000000000
0000000000000000000000000010000000000
0000000000000000000000000000000000000
0000000100000000000000000000000000000
0000000000000000000000000001000000000
0000001000000000000000000000000000000
0000000000000000000000000000100000000
0000001000000000000000000000000000000
0000000000000000000000000000100000000
0000000000000000000000000000000000000
0000000000000000000000000000010000000
0000000000000000000000000000001000000
0000000000000000000000000000001000000

0000000001110000000000000000000000000
0000000001001000000000000000000000000
0000000001000000000000000000000000000
0000000000000000000000000000000000000
0000000001000100000000000000000000000
0000000000000000000000000000000000000
0000000000000000000000000000000000000
0000000000000000000000000000000000000
0000000010000000100000000000000000000
0000000000000000000000000000000000000
0000000000000000000000000000000000000
0000000000000000000000000000000000000
0000000100000000000000000000000000000
0000000000000000001000000000000000000
0000000000000000000000000000000000000
0000000000000000000000000000000000000
0000000100000000000000000000000000000
0000000000000000000000000000000000000
0000000000000000000000000000000000000
0000000000000000000001000000000000000
0000000000000000000000000000000000000
0000001000000000000000000000000000000
0000000000000000000000000000000000000
0000000000000000000000000000000000000
0000000000000000000000010000000000000
0000001000000000000000000000000000000
0000000000000000000000000000000000000
0000000000000000000000000000000000000
0000001000000000000000001000000000000
0000000000000000000000000000000000000
0000000000000000000000000100000000000
0000000000000000000000000000000000000
0000000000000000000000000010000000000
0000000000000000000000000001000000000
0000000000000000000000000001000000000
0000000000000000000000000000100000000
0000000000000000000000000000100000000

0000000000000010000000000000000000000
0000000000000010000000000000000000000
0000000000000101000000000000000000000
0000000000000100100000000000000000000
0000000000000100010000000000000000000
0000000000000000000000000000000000000
0000000000001000001000000000000000000
0000000000000000000100000000000000000
0000000000010000000000000000000000000
0000000000000000000010000000000000000
0000000000000000000000000000000000000
0000000000010000000000000000000000000
0000000000000000000001000000000000000
0000000000000000000000000000000000000
0000000000100000000000100000000000000
0000000000000000000000010000000000000
0000000000000000000000000000000000000
0000000001000000000000001000000000000
0000000000000000000000000000000000000
0000000000000000000000001000000000000
0000000010000000000000000100000000000
0000000000000000000000000100000000000
0000000000000000000000000100000000000
0000000000000000000000000010000000000
0000000010000000000000000010000000000
0000000000000000000000000010000000000
0000000000000000000000000001000000000
0000000000000000000000000000000000000
0000000100000000000000000001000000000
0000000000000000000000000001000000000
0000000000000000000000000000100000000
0000001000000000000000000000100000000
0000000000000000000000000000100000000
0000001000000000000000000000100000000
0000000000000000000000000000010000000
0000001000000000000000000000010000000
0000000000000000000000000000010000000

0000000000000000000011000000000000000
0000000000000000000101000000000000000
0000000000000000000100100000000000000
0000000000000000000100000000000000000
0000000000000000001000100000000000000
0000000000000000000000001000000000000
0000000000000000010000000000000000000
0000000000000000000000001000000000000
0000000000000000100000000000000000000
0000000000000000000000000010000000000
0000000000000001000000000000000000000
0000000000000000000000000000000000000
0000000000000010000000000001000000000
0000000000000000000000000000000000000
0000000000000100000000000000100000000
0000000000000000000000000000000000000
0000000000000000000000000000001000000
0000000000001000000000000000001000000
0000000000000000000000000000001000000
0000000000000000000000000000000000000
0000000000100000000000000000000100000
0000000000000000000000000000000100000
0000000000000000000000000000000100000
0000000001000000000000000000000100000
0000000000000000000000000000000100000
0000000000000000000000000000000000000
0000000000000000000000000000000000000
0000000100000000000000000000000000000
0000000000000000000000000000000000000
0000000000000000000000000000000000000
0000001000000000000000000000000000000
0000000000000000000000000000000000000
0000000000000000000000000000000000000
0000000000000000000000000000000000000
0000100000000000000000000000000000000
0000000000000000000000000000000000000
0000100000000000000000000000000000000
