+
3
1
1
1
1
0
1

0000000000000000000000000000000000000
0000000000000000000000000000000000000
0000000000000000000000000000000000000
0000000000000000000000000000000000001
0000000000000000000000000000000000001
0000000000000000000000000000000000001
0000000000000000000000000000000000001
0000000000000000000000000000000000010
0000000000000000000000000000000000010
0000111111111111010000000000000000000
1111000000000000011000000000000001000
1000000000000000000110000000000010000
1000000000000000000001000000000100000
1000000000000000000000100000001000000
1000000000000000000000011000010000000
1000000000000000000000001100110000000
1000000000000000000000000100100000000
1000000000000000000000000111000000000
1000000000000000000000001111000000000
1000000000000000000000001000100000000
1000000000000000000000011000100000000
1000000000000000000001100000010000000
1000000000000000000110000000011000000
1000000000000000001100000000001100000
0100000000000001011000000000000100000
0111110111011010000000000000000100000
0000000000000000000000000000000010000
0000000000000000000000000000000011000
0000000000000000000000000000000001100
0000000000000000000000000000000000100
0000000000000000000000000000000000010
0000000000000000000000000000000000011
0000000000000000000000000000000000000
0000000000000000000000000000000000000
0000000000000000000000000000000000000
0000000000000000000000000000000000000
0000000000000000000000000000000000000

0000000000000000000000000000000000100
0000000000000000000000000000000000100
0000000000000000000000000000000000100
0000000000000000000000000000000000100
0000000000000000000000000000000001000
0000000000000000000000000000000010000
0000000000000000000000000000000010000
0000000000000000000000000000001100000
0000000000000000000000000000000000000
0000000000000000000000000000010000000
0000000000000000000000000000000000000
0000000000000000000000000000100000000
0000000000000000000000000000000000000
0000000000000000000000000001000000000
0000000000000000000000000000000000000
0000000000000000000000000100000000000
0000000000000000000000000100000000000
1111111110110000000000001000000000000
1000000000001000000000001000000000000
1000000000001100000000000000000000000
1000000000000011000000010000000000000
1000000000000000110000100000000000000
1000000000000000000100000000000000000
1000000000000000000111000000000000000
1000000000000000000011110000000000000
0100000000000000000100001000000000000
0100000000000000000000001000000000000
0100000000000000001000000010000000000
0110000000000000110000000001100000000
0010000000000011000000000000100000000
0010000000001000000000000000010000000
0011111101010000000000000000001000000
0000000000000000000000000000000100000
0000000000000000000000000000000010000
0000000000000000000000000000000001000
0000000000000000000000000000000001100
0000000000000000000000000000000000100

0000000000000000000000000000000000000
0000000000000000000000000000000000000
0000000000000000000000000000000000000
0000000000000000000000000000000000000
0000000000000000000000000000000000000
0000000000000000000000000000000000001
0000000000000000000000000000000000001
0000000000000000000000000000000000001
0000000000000000000000000000000000010
0000000000000000000000000000000000100
0000000000000000000000000000000001100
0000000000000000000000000000000011000
0000000000000000000000000000000010000
1111111111111111111110000000000100000
1000000000000000000001000000001100000
1000000000000000000001100000011000000
1000000000000000000000010000100000000
1000000000000000000000001000100000000
1000000000000000000000000101000000000
1000000000000000000000000010000000000
1000000000000000000000000101100000000
1000000000000000000000111000110000000
1000000000000000000001100000011000000
1100000000000000011110000000000100000
0100000000000011110000000000000110000
0011111111011100000000000000000001000
0000000000000000000000000000000000100
0000000000000000000000000000000000011
0000000000000000000000000000000000001
0000000000000000000000000000000000001
0000000000000000000000000000000000000
0000000000000000000000000000000000000
0000000000000000000000000000000000000
0000000000000000000000000000000000000
0000000000000000000000000000000000000
0000000000000000000000000000000000000
0000000000000000000000000000000000000

