j
14
1
1
1
1
0
0

0000000000000000000000000000000000001
0000000000000000000000000000000000001
0000000000000000000000000000000000001
0000000000000000000000000000000000001
0000000000000000000000000000000000001
0000000000000000000000000000000000010
0000000000000000000000000000000000010
0000000000000000000000000000000000010
0000000000000000000000000000000000010
0000000000000000000000000000000000010
0000000000000000000000000000000000010
0000000000000000000000000000000000010
0000000000000000000000000000000000010
0000000000000000000000000000000000010
0000000000000000000000000000000000010
0000000000000000000000000000000000100
0000000000000000000000000000000000100
0000000000000000000000000000000000100
0000000000000000000000000000000000000
0000000000000000000000000000000000100
0000000000000000000000000000000000100
0000000000000000000000000000000000100
0000000000000000000000000000000000100
0000000000000000000000000000000000100
0000000000000000000000000000000000100
0000000000000000000000000000000000100
0000000000000000000000000000000000100
0000000000000000000000000000000000100
0000000000000000000000000000000000100
0000000000000000000000000000000000100
0000000000000000000000000000000001100
0000000000000000000000000000000001000
0000000000000000000000000000000011000
0000000000000000000000000000000110000
0000000000000000000000000000001100000
0000000000000000000000000001110000000
1111111111111111111111111111000000000

0000000000000000000000000000000010000
0000000000000000000000000000000010000
0000000000000000000000000000000010000
0000000000000000000000000000000010000
0000000000000000000000000000000001000
0000000000000000000000000000000000000
0000000000000000000000000000000001000
0000000000000000000000000000000001000
0000000000000000000000000000000000000
0000000000000000000000000000000001000
0000000000000000000000000000000001000
0000000000000000000000000000000000000
0000000000000000000000000000000001000
0000000000000000000000000000000000000
0000000000000000000000000000000001000
0000000000000000000000000000000000000
0000000000000000000000000000000001000
0000000000000000000000000000000001000
0000000000000000000000000000000000000
0000000000000000000000000000000001000
0000000000000000000000000000000001000
0000000000000000000000000000000001000
0000000000000000000000000000000001000
0000000000000000000000000000000000000
0000000000000000000000000000000001000
0000000000000000000000000000000001000
0000000000000000000000000000000001000
0000000000000000000000000000000001000
0000000000000000000000000000000001000
0000000000000000000000000000000001000
0000000000000000000000000000000001000
0000000000000000000000000000000001000
0000000000000000000000000000000001000
0000000000000000000000000000000001000
0000000000000000000000000000000011000
0011111111000000000000000000001110000
0000000001111111111111110111110000000

0000000000000000000000000000001100000
0000000000000000000000000000000100000
0000000000000000000000000000000100000
0000000000000000000000000000000100000
0000000000000000000000000000000000000
0000000000000000000000000000000010000
0000000000000000000000000000000000000
0000000000000000000000000000000010000
0000000000000000000000000000000000000
0000000000000000000000000000000000000
0000000000000000000000000000000010000
0000000000000000000000000000000000000
0000000000000000000000000000000000000
0000000000000000000000000000000010000
0000000000000000000000000000000000000
0000000000000000000000000000000000000
0000000000000000000000000000000000000
0000000000000000000000000000000010000
0000000000000000000000000000000000000
0000000000000000000000000000000010000
0000000000000000000000000000000000000
0000000000000000000000000000000010000
0000000000000000000000000000000000000
0000000000000000000000000000000010000
0000000000000000000000000000000000000
0000000000000000000000000000000000000
0000000000000000000000000000000010000
0000000000000000000000000000000000000
0000000000000000000000000000000010000
0000000000000000000000000000000010000
0000000000000000000000000000000010000
0000000000000000000000000000000010000
0000000000000000000000000000000010000
0000000000000000000000000000000010000
0000000000000000000000000000000010000
0000000000000000000000000000000010000
0000111111111101010101010010111110000

0000000000000000000000000000000000000
0000000000000000000000000000000000000
0000000000000000000000000000000000100
0000000000000000000000000000000000100
0000000000000000000000000000000000010
0000000000000000000000000000000000010
0000000000000000000000000000000000000
0000000000000000000000000000000000010
0000000000000000000000000000000000010
0000000000000000000000000000000000000
0000000000000000000000000000000000001
0000000000000000000000000000000000000
0000000000000000000000000000000000000
0000000000000000000000000000000000001
0000000000000000000000000000000000001
0000000000000000000000000000000000000
0000000000000000000000000000000000001
0000000000000000000000000000000000001
0000000000000000000000000000000000000
0000000000000000000000000000000000001
0000000000000000000000000000000000001
0000000000000000000000000000000000001
0000000000000000000000000000000000001
0000000000000000000000000000000000001
0000000000000000000000000000000000001
0000000000000000000000000000000000001
0000000000000000000000000000000000010
0000000000000000000000000000000000010
0000000000000000000000000000000001100
0000000000000000000000000000000010000
0000000000000000000000000000000100000
0000000000000000000000000000101000000
0000000000000000000000000010000000000
1110100000000000000010101000000000000
0000011011011011111100000000000000000
0000000000000000000000000000000000000
0000000000000000000000000000000000000

0000000000000000000000000001000000000
0000000000000000000000000001000000000
0000000000000000000000000001000000000
0000000000000000000000000000100000000
0000000000000000000000000000100000000
0000000000000000000000000000100000000
0000000000000000000000000000100000000
0000000000000000000000000000100000000
0000000000000000000000000000100000000
0000000000000000000000000000100000000
0000000000000000000000000000010000000
0000000000000000000000000000010000000
0000000000000000000000000000010000000
0000000000000000000000000000010000000
0000000000000000000000000000010000000
0000000000000000000000000000010000000
0000000000000000000000000000010000000
0000000000000000000000000000100000000
0000000000000000000000000000100000000
0000000000000000000000000000100000000
0000000000000000000000000000100000000
0000000000000000000000000000000000000
0000000000000000000000000001000000000
0000000000000000000000000001000000000
0000000000000000000000000000000000000
0000000000000000000000000001000000000
0000000000000000000000000010000000000
0000000000000000000000000010000000000
0000000000000000000000000010000000000
0000000000000000000000000100000000000
0000000000000000000000000100000000000
0000000000000000000000001100000000000
0000000000000000000000011000000000000
0000000000000000000000110000000000000
0000000000000000000011100000000000000
0000000000001111111100000000000000000
0000001111110000000000000000000000000

0000000000000000000000001000000000000
0000000000000000000000001000000000000
0000000000000000000000000100000000000
0000000000000000000000000100000000000
0000000000000000000000000100000000000
0000000000000000000000000100000000000
0000000000000000000000000100000000000
0000000000000000000000000100000000000
0000000000000000000000000100000000000
0000000000000000000000000100000000000
0000000000000000000000000100000000000
0000000000000000000000000100000000000
0000000000000000000000000100000000000
0000000000000000000000000010000000000
0000000000000000000000000010000000000
0000000000000000000000000010000000000
0000000000000000000000000010000000000
0000000000000000000000000010000000000
0000000000000000000000000010000000000
0000000000000000000000000010000000000
0000000000000000000000000001000000000
0000000000000000000000000001000000000
0000000000000000000000000001000000000
0000000000000000000000000001000000000
0000000000000000000000000001000000000
0000000000000000000000000001000000000
0000000000000000000000000001000000000
0000000000000000000000000001000000000
0000000000000000000000000001000000000
0000000000000000000000000010000000000
0000000000000000000000000100000000000
0000000000000000000000011000000000000
0000000000000000000000100000000000000
0000000000000000000011000000000000000
0000000000000000001100000000000000000
0000000000000001110000000000000000000
0000000001111110000000000000000000000

0000000000000000000000000000000000000
0000000000000000000000000000000000100
0000000000000000000000000000000000100
0000000000000000000000000000000000100
0000000000000000000000000000000000100
0000000000000000000000000000000000010
0000000000000000000000000000000000010
0000000000000000000000000000000000010
0000000000000000000000000000000000001
0000000000000000000000000000000000001
0000000000000000000000000000000000000
0000000000000000000000000000000000001
0000000000000000000000000000000000001
0000000000000000000000000000000000000
0000000000000000000000000000000000001
0000000000000000000000000000000000001
0000000000000000000000000000000000001
0000000000000000000000000000000000000
0000000000000000000000000000000000001
0000000000000000000000000000000000001
0000000000000000000000000000000000000
0000000000000000000000000000000000001
0000000000000000000000000000000000001
0000000000000000000000000000000000001
0000000000000000000000000000000000001
0000000000000000000000000000000000011
0000000000000000000000000000000000110
0000000000000000000000000000000001000
0000000000000000000000000000000010000
0000000000000000000000000000001000000
0000000000000000000000000010100000000
0000000000000000000000010000000000000
0000000000000000000101000000000000000
1110000000000001010000000000000000000
0011101011111110000000000000000000000
0000000000000000000000000000000000000
0000000000000000000000000000000000000

0000000000000000000000000010000000000
0000000000000000000000000010000000000
0000000000000000000000000001000000000
0000000000000000000000000001000000000
0000000000000000000000000000100000000
0000000000000000000000000000000000000
0000000000000000000000000000000000000
0000000000000000000000000000010000000
0000000000000000000000000000000000000
0000000000000000000000000000001000000
0000000000000000000000000000000000000
0000000000000000000000000000001000000
0000000000000000000000000000000000000
0000000000000000000000000000000000000
0000000000000000000000000000000100000
0000000000000000000000000000000000000
0000000000000000000000000000000100000
0000000000000000000000000000000000000
0000000000000000000000000000000010000
0000000000000000000000000000000000000
0000000000000000000000000000000010000
0000000000000000000000000000000000000
0000000000000000000000000000000010000
0000000000000000000000000000000010000
0000000000000000000000000000000010000
0000000000000000000000000000000010000
0000000000000000000000000000000010000
0000000000000000000000000000000010000
0000000000000000000000000000000010000
0000000000000000000000000000000010000
0000000000000000000000000000000010000
0000000000000000000000000000000110000
0000000000000000000000000000000100000
0000000000000000000000000000111000000
0000000000000000000000000001000000000
0000000000000000000010110100000000000
0011111111101101010100000000000000000

0000000000000000000000000000110000000
0000000000000000000000000000010000000
0000000000000000000000000000010000000
0000000000000000000000000000000000000
0000000000000000000000000000001000000
0000000000000000000000000000001000000
0000000000000000000000000000000000000
0000000000000000000000000000000100000
0000000000000000000000000000000000000
0000000000000000000000000000000100000
0000000000000000000000000000000000000
0000000000000000000000000000000010000
0000000000000000000000000000000000000
0000000000000000000000000000000010000
0000000000000000000000000000000000000
0000000000000000000000000000000010000
0000000000000000000000000000000001000
0000000000000000000000000000000000000
0000000000000000000000000000000001000
0000000000000000000000000000000001000
0000000000000000000000000000000001000
0000000000000000000000000000000001000
0000000000000000000000000000000000000
0000000000000000000000000000000001000
0000000000000000000000000000000000000
0000000000000000000000000000000001000
0000000000000000000000000000000001000
0000000000000000000000000000000010000
0000000000000000000000000000000010000
0000000000000000000000000000000010000
0000000000000000000000000000000010000
0000000000000000000000000000000010000
0000000000000000000000000000000110000
0000000000000000000000000000001100000
0000000000000000000000000010111000000
0000000000000000000000011100000000000
0011111110111110101001000000000000000

0000000000000000000000110000000000000
0000000000000000000000010000000000000
0000000000000000000000010000000000000
0000000000000000000000001000000000000
0000000000000000000000001000000000000
0000000000000000000000000000000000000
0000000000000000000000001000000000000
0000000000000000000000000000000000000
0000000000000000000000000100000000000
0000000000000000000000000000000000000
0000000000000000000000000100000000000
0000000000000000000000000000000000000
0000000000000000000000000010000000000
0000000000000000000000000000000000000
0000000000000000000000000010000000000
0000000000000000000000000000000000000
0000000000000000000000000010000000000
0000000000000000000000000010000000000
0000000000000000000000000000000000000
0000000000000000000000000010000000000
0000000000000000000000000010000000000
0000000000000000000000000010000000000
0000000000000000000000000001000000000
0000000000000000000000000001000000000
0000000000000000000000000001000000000
0000000000000000000000000001000000000
0000000000000000000000000001000000000
0000000000000000000000000001000000000
0000000000000000000000000010000000000
0000000000000000000000000010000000000
0000000000000000000000000010000000000
0000000000000000000000000110000000000
0000000000000000000000001100000000000
0000000000000000000000011000000000000
0000000000000000000011100000000000000
0000000000000000001100000000000000000
0000000001111110110000000000000000000

0000000000000000000000000000000000000
0000000000000000000000000000000000000
0000000000000000000000000000000000000
0000000000000000000000000000000000000
0000000000000000000000000000000000000
0000000000000000000000000000000000000
0000000000000000000000000000000001000
0000000000000000000000000000000001100
0000000000000000000000000000000000100
0000000000000000000000000000000000100
0000000000000000000000000000000000100
0000000000000000000000000000000000000
0000000000000000000000000000000000010
0000000000000000000000000000000000000
0000000000000000000000000000000000010
0000000000000000000000000000000000000
0000000000000000000000000000000000010
0000000000000000000000000000000000000
0000000000000000000000000000000000000
0000000000000000000000000000000000001
0000000000000000000000000000000000000
0000000000000000000000000000000000001
0000000000000000000000000000000000001
0000000000000000000000000000000000000
0000000000000000000000000000000000001
0000000000000000000000000000000000001
0000000000000000000000000000000000001
0000000000000000000000000000000000001
0000000000000000000000000000000000001
1111111111111100000000000000000011111
0000000000000011111111111101011010000
0000000000000000000000000000000000000
0000000000000000000000000000000000000
0000000000000000000000000000000000000
0000000000000000000000000000000000000
0000000000000000000000000000000000000
0000000000000000000000000000000000000

0000000000000000000000000000000000000
0000000000000000000000000000000000000
0000000000000000000000000000000000000
0000000000000000000000000000000000000
0000000000000000000000000000000100000
0000000000000000000000000000000010000
0000000000000000000000000000000010000
0000000000000000000000000000000001000
0000000000000000000000000000000001000
0000000000000000000000000000000000000
0000000000000000000000000000000001000
0000000000000000000000000000000000100
0000000000000000000000000000000000100
0000000000000000000000000000000000000
0000000000000000000000000000000000100
0000000000000000000000000000000000010
0000000000000000000000000000000000000
0000000000000000000000000000000000010
0000000000000000000000000000000000000
0000000000000000000000000000000000010
0000000000000000000000000000000000010
0000000000000000000000000000000000000
0000000000000000000000000000000000001
0000000000000000000000000000000000001
0000000000000000000000000000000000001
0000000000000000000000000000000000001
0000000000000000000000000000000000001
0000000000000000000000000000000000001
0000000000000000000000000000000000011
0000000000000000000000000000000000110
1111110000000000000000000010110110000
0000011111111011010101011000000000000
0000000000000000000000000000000000000
0000000000000000000000000000000000000
0000000000000000000000000000000000000
0000000000000000000000000000000000000
0000000000000000000000000000000000000

0000000000000000000000000000000000000
0000000000000000000000000000000000000
0000000000000000000000000000000000000
0000000000000000000000000000000000000
0000000000000000000000000000000000000
0000000000000000000000000000000000000
0000000000000000000000000000000000100
0000000000000000000000000000000000010
0000000000000000000000000000000000010
0000000000000000000000000000000000010
0000000000000000000000000000000000010
0000000000000000000000000000000000001
0000000000000000000000000000000000001
0000000000000000000000000000000000001
0000000000000000000000000000000000001
0000000000000000000000000000000000001
0000000000000000000000000000000000001
0000000000000000000000000000000000001
0000000000000000000000000000000000001
0000000000000000000000000000000000001
0000000000000000000000000000000000001
0000000000000000000000000000000000001
0000000000000000000000000000000000011
0000000000000000000000000000000000010
0000000000000000000000000000000001100
0000000000000000000000000000000010000
0000000000000000000000000000001100000
0000000000000000000000000000110000000
1111111111100000000000000011000000000
0000000000111111000000001100000000000
0000000000000000111111110000000000000
0000000000000000000000000000000000000
0000000000000000000000000000000000000
0000000000000000000000000000000000000
0000000000000000000000000000000000000
0000000000000000000000000000000000000
0000000000000000000000000000000000000

0000000000000000000000000000000000000
0000000000000000000000000000000000000
0000000000000000000000000000000010000
0000000000000000000000000000000010000
0000000000000000000000000000000010000
0000000000000000000000000000000010000
0000000000000000000000000000000010000
0000000000000000000000000000000001000
0000000000000000000000000000000000000
0000000000000000000000000000000001000
0000000000000000000000000000000000000
0000000000000000000000000000000000100
0000000000000000000000000000000000100
0000000000000000000000000000000000000
0000000000000000000000000000000000100
0000000000000000000000000000000000000
0000000000000000000000000000000000010
0000000000000000000000000000000000000
0000000000000000000000000000000000010
0000000000000000000000000000000000010
0000000000000000000000000000000000010
0000000000000000000000000000000000000
0000000000000000000000000000000000001
0000000000000000000000000000000000001
0000000000000000000000000000000000001
0000000000000000000000000000000000001
0000000000000000000000000000000000001
0000000000000000000000000000000000001
0000000000000000000000000000000000001
0000000000000000000000000000000000001
0000000000000000000000000000000000001
0000000000000000000000000000000001111
1111100000000000000000011101111110000
0000111111111111111111000000000000000
0000000000000000000000000000000000000
0000000000000000000000000000000000000
0000000000000000000000000000000000000
