@
3
1
0
1
0
0
1

0000000000000000000000000000000000000
0000000000000000001111111111110000000
0000000111111100000000000000011100000
0000001100000000000000000000000011000
0000010000000000000000000000000000100
0000100000000000000000000000000000110
0001000000000000000000000000000000011
0010000000000000000000000000000000001
0010000000000000000000000000000000001
0010000000000000000000000000000000001
0110000000000000000000000000000000001
0000000000000000000000000000000000001
0100000000000000000000000000000000001
1000000000000000000000000000000000001
1000000000000000000000000000000000001
0000000000000000000000000000000000001
1000000000000000000000000000000000001
1000000000000000000000000000000000001
1000000000000000000000000000000000001
1000000000000000000000000000000000001
1000000000000000000000000000000000001
1000000000000000000000000000000000001
1000000000000000000000000000000000001
1000000000000000000000000000000000001
1000000000000000000000000000000000001
1000000000000000000000000000000000011
1000000000000000000000000000000000010
1000000000000000000000000000000000100
1000000000000000000000000000000001100
1000000000000000000000000000000010000
0100000000000000000000000000000010000
0010000000000000000000000000001100000
0001100000000000000000000000011000000
0000001010000000000000000011100000000
0000000001011111101101111100000000000
0000000000000000000000000000000000000
0000000000000000000000000000000000000

0000000000000000000000000000000000000
0000000000000000000000000000000000000
0000000000000000000000000000000000000
0001111111111111100001111100000000000
0001000000000000000000000111100000000
0010000000000000000000000000011111100
0010000000000000000000000000000000110
0010000000000000000000000000000000001
0100000000000000000000000000000000001
0100000000000000000000000000000000001
1000000000000000000000000000000000001
1000000000000000000000000000000000001
1000000000000000000000000000000000001
0000000000000000000000000000000000001
1000000000000000000000000000000000001
1000000000000000000000000000000000001
1000000000000000000000000000000000001
1000000000000000000000000000000000001
1000000000000000000000000000000000001
1000000000000000000000000000000000001
1000000000000000000000000000000000001
1000000000000000000000000000000000001
1000000000000000000000000000000000011
1000000000000000000000000000000000010
1000000000000000000000000000000000010
1000000000000000000000000000000000110
1000000000000000000000000000000001100
1000000000000000000000000000000011000
1000000000000000000000000000001100000
1000000000000000000000000000011000000
1100000000000000000000000000110000000
0111000000000000000000000001100000000
0000101000000000000000000010000000000
0000001111111111111110111100000000000
0000000000000000000000000000000000000
0000000000000000000000000000000000000
0000000000000000000000000000000000000

0000000000000000000000000000000000000
0000000000000000001111111111110000000
0001111111100000000000000000011110000
0001000000000000000000000000000011100
0010000000000000000000000000000000110
0010000000000000000000000000000000011
0010000000000000000000000000000000001
0100000000000000000000000000000000001
0100000000000000000000000000000000001
0100000000000000000000000000000000001
1000000000000000000000000000000000001
1000000000000000000000000000000000001
1000000000000000000000000000000000001
1000000000000000000000000000000000001
1000000000000000000000000000000000001
1000000000000000000000000000000000001
1000000000000000000000000000000000001
1000000000000000000000000000000000001
1000000000000000000000000000000000001
1000000000000000000000000000000000001
1000000000000000000000000000000000001
1000000000000000000000000000000000001
1000000000000000000000000000000000001
1000000000000000000000000000000000011
1000000000000000000000000000000000010
0000000000000000000000000000000000100
1000000000000000000000000000000000100
1000000000000000000000000000000001100
1000000000000000000000000000000001000
1000000000000000000000000000000010000
1000000000000000000000000000001100000
1000000000000000000000000000010000000
1000000000000000000000000000100000000
0100000000000000000000000001100000000
0011100000000000000000000110000000000
0000011101111111111111111000000000000
0000000000000000000000000000000000000

